tb_.vcd
$date
	Thu Mar 19 19:29:03 2026
$end
$version
	Icarus Verilog
$end
$timescale
	1s
$end
$scope module tb $end
$var wire 1 ! ADDRESS_OUTPUT_ENABLE $end
$var wire 1 " DATA_OUTPUT_ENABLE $end
$var wire 1 # IOERR $end
$var wire 1 $ IO_RDY $end
$var wire 1 % ISADONE $end
$var wire 1 & MEMCS16 $end
$var wire 1 ' NOWS $end
$var wire 1 ( empty $end
$var wire 1 ) isa_ctrl_out_en $end
$var wire 20 * maxVramAddress [19:0] $end
$var wire 1 + valid $end
$var wire 1 , write_en $end
$var wire 1 - undecidedIsaCycle $end
$var wire 1 . read_en $end
$var wire 20 / genVramAddress [19:0] $end
$var wire 1 0 full $end
$var wire 1 1 frameEnd $end
$var wire 1 2 alreadyDidHsyncReset $end
$var wire 1 3 actualBusCycle $end
$var wire 1 4 TE3 $end
$var wire 1 5 TE2 $end
$var wire 1 6 TE1 $end
$var wire 1 7 TE0 $end
$var wire 5 8 Ri [4:0] $end
$var wire 1 9 RD $end
$var wire 1 : IOCS16 $end
$var wire 6 ; Gi [5:0] $end
$var wire 1 < FPGA_WR $end
$var wire 1 = FPGA_IO_EN $end
$var wire 1 > CE $end
$var wire 5 ? Bi [4:0] $end
$var wire 1 @ ADS_OE $end
$var wire 1 A ADS_LATCH $end
$var parameter 32 B CLK_PERIOD $end
$var reg 1 C BALE $end
$var reg 1 D HSYNC $end
$var reg 1 E IOR $end
$var reg 1 F IOW $end
$var reg 1 G ISA_CLK $end
$var reg 1 H MEMR $end
$var reg 1 I MEMW $end
$var reg 1 J SBHE $end
$var reg 1 K SMEMR $end
$var reg 1 L SMEMW $end
$var reg 1 M VSYNC $end
$var reg 1 N clk $end
$var reg 1 O evenOrOdd $end
$var reg 20 P isaAddressBus [19:0] $end
$var reg 1 Q pixelClock $end
$var reg 1 R rst_n $end
$var reg 1 S vblank $end
$var reg 16 T vramDataBus [15:0] $end
$scope module isathing $end
$var wire 1 A ADS_LATCH $end
$var wire 1 C BALE $end
$var wire 1 N FPGACLK $end
$var wire 1 < FPGA_WR $end
$var wire 1 : IOCS16 $end
$var wire 1 # IOERR $end
$var wire 1 E IOR $end
$var wire 1 F IOW $end
$var wire 1 $ IO_RDY $end
$var wire 1 G ISA_CLK $end
$var wire 1 & MEMCS16 $end
$var wire 1 H MEMR $end
$var wire 1 I MEMW $end
$var wire 1 ' NOWS $end
$var wire 1 R RESET $end
$var wire 1 J SBHE $end
$var wire 1 K SMEMR $end
$var wire 1 L SMEMW $end
$var wire 1 3 actual_bus_cycle $end
$var wire 20 U addressBus [19:0] $end
$var wire 1 % done $end
$var wire 1 V memoryCyclesEnabled $end
$var wire 1 - undecidedIsaCycle $end
$var wire 1 4 TE3 $end
$var wire 1 5 TE2 $end
$var wire 1 6 TE1 $end
$var wire 1 7 TE0 $end
$var wire 1 = FPGA_IO_EN $end
$var wire 1 @ ADS_OE $end
$var reg 3 W ADS_OE_Delay [2:0] $end
$var reg 3 X FPGA_IO_WAITCTR [2:0] $end
$var reg 1 Y ISACLKSTATE $end
$var reg 1 Z TE0i $end
$var reg 1 [ TE1i $end
$var reg 1 \ TE2i $end
$var reg 1 ] TE3i $end
$var reg 1 ^ actualBusCycle $end
$var reg 2 _ baleassertctr [1:0] $end
$var reg 1 ` fastSBHE $end
$var reg 1 @ iADS_OE $end
$var reg 1 = iFPGA_IO_EN $end
$var reg 1 a iIOCS16 $end
$var reg 1 - i_undedicedIsaCycle $end
$var reg 3 b isacyclessincebale [2:0] $end
$var reg 3 c isahighctr [2:0] $end
$var reg 3 d isalowwaitctr [2:0] $end
$var reg 20 e lastAdsRequest [19:0] $end
$var reg 1 f mio $end
$var reg 1 g needToDecode $end
$var reg 1 h r1_Pulse $end
$var reg 1 i r2_Pulse $end
$var reg 1 j r3_Pulse $end
$var reg 4 k stupidCtr [3:0] $end
$var reg 1 l waitAlreadySet $end
$var reg 1 m wr $end
$upscope $end
$scope module testramthingy $end
$var wire 1 D HSYNC $end
$var wire 1 R RESET $end
$var wire 1 M VSYNC $end
$var wire 1 n bus_free $end
$var wire 1 > chipEnable $end
$var wire 1 N clock $end
$var wire 16 o dataInputBus [15:0] $end
$var wire 1 ( empty $end
$var wire 1 O evenOrOdd $end
$var wire 1 . fifoRead $end
$var wire 1 , fifoWrite $end
$var wire 1 1 frameEnd $end
$var wire 20 p maxVramAddress [19:0] $end
$var wire 20 q nextVramAddress [19:0] $end
$var wire 1 Q pixelClock $end
$var wire 1 9 readSignal $end
$var wire 1 + valid $end
$var wire 1 S vblank $end
$var wire 1 S vblank_pixelDomian $end
$var wire 1 0 full $end
$var wire 1 2 debugalreadyDidHsyncReset $end
$var wire 16 r b2dout [15:0] $end
$var wire 16 s b1dout [15:0] $end
$var wire 5 t Ri [4:0] $end
$var wire 6 u Gi [5:0] $end
$var wire 5 v Bi [4:0] $end
$var reg 1 w alreadySubtracted $end
$var reg 3 x bsCounter [2:0] $end
$var reg 1 y bugFix $end
$var reg 5 z delayBeforeWriteAgain [4:0] $end
$var reg 1 { fastEvenOrOdd $end
$var reg 1 | fastFrameEnd $end
$var reg 1 } fastVblank $end
$var reg 20 ~ iNextVramAddress [19:0] $end
$var reg 1 !" ichipEnable $end
$var reg 1 "" ififoRead $end
$var reg 1 #" ififoWrite $end
$var reg 1 $" iframeEnd $end
$var reg 16 %" ipixelOutput [15:0] $end
$var reg 1 &" ireadSignal $end
$var reg 1 '" r1_Pulse $end
$var reg 1 (" r2_Pulse $end
$var reg 1 )" r3_Pulse $end
$var reg 10 *" raddr [9:0] $end
$var reg 10 +" waddr [9:0] $end
$scope module b1 $end
$var wire 16 ," din [15:0] $end
$var wire 10 -" raddr [9:0] $end
$var wire 1 Q rclk $end
$var wire 1 "" read_en $end
$var wire 10 ." waddr [9:0] $end
$var wire 1 N wclk $end
$var wire 1 /" write_en $end
$var parameter 32 0" addr_width $end
$var parameter 32 1" data_width $end
$var reg 16 2" dout [15:0] $end
$upscope $end
$scope module b2 $end
$var wire 16 3" din [15:0] $end
$var wire 10 4" raddr [9:0] $end
$var wire 1 Q rclk $end
$var wire 1 "" read_en $end
$var wire 10 5" waddr [9:0] $end
$var wire 1 N wclk $end
$var wire 1 6" write_en $end
$var parameter 32 7" addr_width $end
$var parameter 32 8" data_width $end
$var reg 16 9" dout [15:0] $end
$upscope $end
$upscope $end
$upscope $end
$enddefinitions $end
$comment Show the parameter values. $end
$dumpall
b10000 8"
b1010 7"
b10000 1"
b1010 0"
b1000 B
$end
#0
$dumpvars
bx 9"
x6"
bx 5"
bx 4"
bx 3"
bx 2"
x/"
bx ."
bx -"
bx ,"
bx +"
bx *"
x)"
x("
x'"
x&"
bx %"
x$"
x#"
x""
x!"
bx ~
x}
x|
x{
bx z
xy
bx x
xw
bx v
bx u
bx t
bx s
bx r
bx q
b110100 p
bx o
xn
xm
xl
bx k
xj
xi
xh
xg
xf
bx e
bx d
bx c
bx b
xa
x`
bx _
x^
x]
x\
x[
xZ
xY
bx X
bx W
1V
bx U
bx T
xS
xR
xQ
bx P
xO
xN
xM
xL
xK
xJ
xI
xH
xG
xF
xE
xD
xC
xA
x@
bx ?
x>
x=
x<
bx ;
x:
x9
bx 8
x7
x6
x5
x4
x3
x2
x1
x0
bx /
x.
x-
x,
z+
b110100 *
x)
z(
0'
1&
z%
1$
1#
x"
x!
$end
#10
02
b0 8
b0 t
b0 ;
b0 u
b0 ?
b0 v
0.
0""
b0 *"
b0 -"
b0 4"
b0 %"
1Q
0O
1M
1D
0S
#20
0Q
#24
b0 T
b0 o
b0 ,"
b0 3"
#25
1R
#30
17
16
15
14
1)
0"
0<
1Q
b11111111 P
b11111111 U
1:
1J
0A
0C
1L
1K
1I
1H
1F
1E
1G
#40
0Q
#49
0N
0R
#50
01
0$"
1Q
#52
0n
00
b0 +"
b0 ."
b0 5"
1,
1#"
1>
1!"
19
1&"
b0 /
b0 q
b0 ~
b0 z
1w
0y
b0 x
1'"
1]
1\
1[
1Z
0-
1h
b0 b
b0 _
b0 W
b0 e
b11 d
b11 c
b11 X
1l
1a
b0 k
1!
1@
0=
03
0^
0g
1N
#56
0N
#60
1i
0h
b11 X
1("
0'"
1N
0Q
0G
#64
0N
#68
1)"
0("
1j
0i
b11 X
1R
1N
b1010010001010101 T
b1010010001010101 o
b1010010001010101 ,"
b1010010001010101 3"
#70
12
bx 8
bx t
bx ;
bx u
bx ?
bx v
b1 *"
b1 -"
b1 4"
1.
1""
bx %"
1S
1Q
#72
0N
#76
b1 b
0Y
0j
0w
b1 +"
b1 ."
b1 5"
b10 /
b10 q
b10 ~
0>
0!"
09
0&"
0)"
1'"
1N
b1111111111111111 T
b1111111111111111 o
b1111111111111111 ,"
b1111111111111111 3"
#80
0N
0Q
#84
b10 +"
b10 ."
b10 5"
b100 /
b100 q
b100 ~
1("
0'"
1N
b1101100100000011 T
b1101100100000011 o
b1101100100000011 ,"
b1101100100000011 3"
#88
0N
#90
02
b10 *"
b10 -"
b10 4"
1Q
1G
#92
1/"
06"
1h
b11 +"
b11 ."
b11 5"
b110 /
b110 q
b110 ~
0|
1}
0{
1)"
0("
1'"
1N
b1010110110011 T
b1010110110011 o
b1010110110011 ,"
b1010110110011 3"
#96
0N
#100
b100 +"
b100 ."
b100 5"
b1000 /
b1000 q
b1000 ~
0)"
1("
0'"
1i
1N
b11000000111001 T
b11000000111001 o
b11000000111001 ,"
b11000000111001 3"
0Q
#104
0N
#108
b10 b
1Y
1j
b101 +"
b101 ."
b101 5"
b1010 /
b1010 q
b1010 ~
1)"
0("
1N
b1000011100010 T
b1000011100010 o
b1000011100010 ,"
b1000011100010 3"
#110
12
b11 *"
b11 -"
b11 4"
1Q
#112
0N
#116
b110 +"
b110 ."
b110 5"
b1100 /
b1100 q
b1100 ~
0)"
1'"
b10 c
1N
b10001010111000 T
b10001010111000 o
b10001010111000 ,"
b10001010111000 3"
#120
0N
0Q
0G
#124
b1 c
0h
b111 +"
b111 ."
b111 5"
b1110 /
b1110 q
b1110 ~
1("
0'"
1N
b1000100111110 T
b1000100111110 o
b1000100111110 ,"
b1000100111110 3"
#128
0N
#130
02
b11000000111001 s
b11000000111001 2"
b100 *"
b100 -"
b100 4"
1Q
#132
b1000 +"
b1000 ."
b1000 5"
b10000 /
b10000 q
b10000 ~
1)"
0("
1'"
b0 c
0i
1N
b1010110110011 T
b1010110110011 o
b1010110110011 ,"
b1010110110011 3"
#136
0N
#140
b11 b
0f
1m
1`
0Y
0j
b1001 +"
b1001 ."
b1001 5"
b10010 /
b10010 q
b10010 ~
0)"
1("
0'"
1N
b1100111011110 T
b1100111011110 o
b1100111011110 ,"
b1100111011110 3"
0Q
#144
0N
#148
b1010 +"
b1010 ."
b1010 5"
b10100 /
b10100 q
b10100 ~
1)"
0("
b11 c
1N
b100001101010000 T
b100001101010000 o
b100001101010000 ,"
b100001101010000 3"
#150
12
b101 *"
b101 -"
b101 4"
b1000011100010 s
b1000011100010 2"
1Q
1G
#152
0N
#156
1h
b1011 +"
b1011 ."
b1011 5"
b10110 /
b10110 q
b10110 ~
0)"
1'"
1N
b1110000100 T
b1110000100 o
b1110000100 ,"
b1110000100 3"
#160
0N
0Q
#164
b1100 +"
b1100 ."
b1100 5"
b11000 /
b11000 q
b11000 ~
1("
0'"
1i
1N
b110100100 T
b110100100 o
b110100100 ,"
b110100100 3"
#168
0N
#170
02
b10001010111000 s
b10001010111000 2"
b110 *"
b110 -"
b110 4"
1Q
#172
b100 b
1Y
1j
b1101 +"
b1101 ."
b1101 5"
b11010 /
b11010 q
b11010 ~
1)"
0("
1'"
1N
b1000101 T
b1000101 o
b1000101 ,"
b1000101 3"
#176
0N
#180
b1110 +"
b1110 ."
b1110 5"
b11100 /
b11100 q
b11100 ~
0)"
1("
0'"
b0 b
b101 W
0-
b10000100000 e
1!
1@
b10 c
0h
1N
b1111110111101000 T
b1111110111101000 o
b1111110111101000 ,"
b1111110111101000 3"
0Q
b10000100000 P
b10000100000 U
0:
0J
1A
1C
0G
#184
0N
#188
b100 W
0-
0!
0@
b1 c
0i
b1111 +"
b1111 ."
b1111 5"
b11110 /
b11110 q
b11110 ~
1)"
0("
1N
#190
12
b111 *"
b111 -"
b111 4"
b1000100111110 s
b1000100111110 2"
1Q
#192
0N
#196
b10000 +"
b10000 ."
b10000 5"
b100000 /
b100000 q
b100000 ~
0)"
1'"
b11 W
0-
b0 c
0Y
0j
1N
#200
0N
0Q
#204
b10 W
0-
b11 c
b10001 +"
b10001 ."
b10001 5"
b100010 /
b100010 q
b100010 ~
1("
0'"
1N
#208
0N
#210
02
b1010110110011 s
b1010110110011 2"
b1000 *"
b1000 -"
b1000 4"
1Q
0A
0C
1G
#212
b10010 +"
b10010 ."
b10010 5"
b100100 /
b100100 q
b100100 ~
1)"
0("
1'"
b1 W
1h
1N
#216
0N
#220
b0 W
1i
b10011 +"
b10011 ."
b10011 5"
b100110 /
b100110 q
b100110 ~
0)"
1("
0'"
1N
0Q
#224
0N
#228
b10100 +"
b10100 ."
b10100 5"
b101000 /
b101000 q
b101000 ~
1)"
0("
b1 b
1!
1@
1Y
1j
1N
#230
12
b1001 *"
b1001 -"
b1001 4"
b1100111011110 s
b1100111011110 2"
1Q
#232
0N
#236
b10 c
b10101 +"
b10101 ."
b10101 5"
b101010 /
b101010 q
b101010 ~
0)"
1'"
1N
#240
0)
1<
0N
0Q
0E
0G
#244
1"
1n
b10110 +"
b10110 ."
b10110 5"
b101100 /
b101100 q
b101100 ~
1("
0'"
1=
13
1^
b1 c
0h
1N
#248
0N
#250
02
b100001101010000 s
b100001101010000 2"
b1010 *"
b1010 -"
b1010 4"
1Q
#252
06
07
0/"
0[
0Z
b0 c
0i
b101 x
b100 z
0,
0#"
1>
1!"
19
1&"
1)"
0("
1'"
1N
#256
0N
#260
0)"
1("
0'"
b10 b
0`
0Y
0j
1N
0Q
#264
0N
#268
b11 c
1)"
0("
1N
#270
12
b1011 *"
b1011 -"
b1011 4"
b1110000100 s
b1110000100 2"
1Q
1G
#272
0N
#276
0)"
1'"
1h
1N
#280
0N
0Q
#284
1i
1("
0'"
1N
#288
0N
#290
02
b110100100 s
b110100100 2"
b1100 *"
b1100 -"
b1100 4"
1Q
#292
1)"
0("
1'"
b11 b
1Y
1j
1N
#296
0N
#300
b10 c
0h
0)"
1("
0'"
1N
0Q
0G
#304
0N
#308
1)"
0("
b1 c
0i
1N
#310
12
b1101 *"
b1101 -"
b1101 4"
b1000101 s
b1000101 2"
1Q
#312
0N
#316
b100 b
b0 c
0Y
0j
0)"
1'"
1N
#320
0N
0Q
#324
1("
0'"
b11 c
1N
#328
0N
#330
02
b1111110111101000 s
b1111110111101000 2"
b1110 *"
b1110 -"
b1110 4"
17
16
0"
0<
1Q
1E
1G
#332
1)
0n
1[
1Z
03
0^
0=
1h
1)"
0("
1'"
1N
#336
0N
#340
0>
0!"
09
0&"
0)"
1("
0'"
b11 z
1i
1N
0Q
#344
0N
#348
b101 b
1Y
1j
1)"
0("
b10 z
1N
#350
12
b1111 *"
b1111 -"
b1111 4"
1Q
#352
0N
#356
0)"
1'"
b1 z
b10 c
1N
#360
0N
0Q
0G
#364
1/"
b1 c
0h
1,
1#"
1("
0'"
b0 z
1N
#368
0N
#370
02
b10000 *"
b10000 -"
b10000 4"
1Q
#372
b100 x
1)"
0("
1'"
b0 c
0i
1N
#376
0N
#380
b110 b
0Y
0j
b11 x
0)"
1("
0'"
1N
0Q
#384
0N
#388
b10 x
1)"
0("
b11 c
1N
#390
12
b10001 *"
b10001 -"
b10001 4"
1Q
1G
#392
0N
#396
1h
b1 x
0)"
1'"
1N
#400
0N
0Q
#404
b0 x
1("
0'"
1i
1N
#408
0N
#410
02
b10010 *"
b10010 -"
b10010 4"
1Q
#412
1Y
1j
b10111 +"
b10111 ."
b10111 5"
b101110 /
b101110 q
b101110 ~
1)"
0("
1'"
1N
#416
0N
#420
b11000 +"
b11000 ."
b11000 5"
b110000 /
b110000 q
b110000 ~
0)"
1("
0'"
b10 c
0h
1N
0Q
0G
#424
0N
#428
b1 c
0i
b11001 +"
b11001 ."
b11001 5"
b110010 /
b110010 q
b110010 ~
1)"
0("
1N
#430
12
b10011 *"
b10011 -"
b10011 4"
0D
1Q
#432
0N
#436
b11010 +"
b11010 ."
b11010 5"
b110100 /
b110100 q
b110100 ~
0)"
1'"
b0 c
0Y
0j
1N
#440
0N
0Q
#444
b11 c
b11011 +"
b11011 ."
b11011 5"
b110110 /
b110110 q
b110110 ~
1("
0'"
1N
#448
0N
#450
02
b10100 *"
b10100 -"
b10100 4"
1Q
1G
#452
b11100 +"
b11100 ."
b11100 5"
b111000 /
b111000 q
b111000 ~
1)"
0("
1'"
1h
1N
#456
0N
#460
1i
b11101 +"
b11101 ."
b11101 5"
b111010 /
b111010 q
b111010 ~
0)"
1("
0'"
1N
1D
1O
0Q
#464
0N
#468
0/"
16"
b11110 +"
b11110 ."
b11110 5"
b111100 /
b111100 q
b111100 ~
1{
1)"
0("
1Y
1j
1N
#470
12
b11111 8
b11111 t
b101111 ;
b101111 u
b1000 ?
b1000 v
b10101 *"
b10101 -"
b10101 4"
b1111110111101000 %"
1Q
#472
0N
#476
b10 c
b11111 +"
b11111 ."
b11111 5"
b111110 /
b111110 q
b111110 ~
0)"
1'"
1N
#480
0N
0Q
0G
#484
b100000 +"
b100000 ."
b100000 5"
b1000000 /
b1000000 q
b1000000 ~
1("
0'"
b1 c
0h
1N
#488
0N
#490
02
b10110 *"
b10110 -"
b10110 4"
1Q
#492
b0 c
0i
b100001 +"
b100001 ."
b100001 5"
b1000010 /
b1000010 q
b1000010 ~
1)"
0("
1'"
1N
#496
0N
#500
b100010 +"
b100010 ."
b100010 5"
b1000100 /
b1000100 q
b1000100 ~
0)"
1("
0'"
0Y
0j
1N
0Q
#504
0N
#508
b11 c
b100011 +"
b100011 ."
b100011 5"
b1000110 /
b1000110 q
b1000110 ~
1)"
0("
1N
#510
12
b10111 *"
b10111 -"
b10111 4"
1Q
1G
#512
0N
#516
b100100 +"
b100100 ."
b100100 5"
b1001000 /
b1001000 q
b1001000 ~
0)"
1'"
1h
1N
#520
0N
0Q
#524
1i
b100101 +"
b100101 ."
b100101 5"
b1001010 /
b1001010 q
b1001010 ~
1("
0'"
1N
#528
0N
#530
02
b11000 *"
b11000 -"
b11000 4"
1Q
#532
b100110 +"
b100110 ."
b100110 5"
b1001100 /
b1001100 q
b1001100 ~
1)"
0("
1'"
1Y
1j
1N
#536
0N
#540
b10 c
0h
b100111 +"
b100111 ."
b100111 5"
b1001110 /
b1001110 q
b1001110 ~
0)"
1("
0'"
1N
0Q
0G
#544
0N
#548
b101000 +"
b101000 ."
b101000 5"
b1010000 /
b1010000 q
b1010000 ~
1)"
0("
b1 c
0i
1N
#550
12
b11001 *"
b11001 -"
b11001 4"
1Q
#552
0N
#556
b0 c
0Y
0j
b101001 +"
b101001 ."
b101001 5"
b1010010 /
b1010010 q
b1010010 ~
0)"
1'"
1N
#560
0N
0Q
#564
b101010 +"
b101010 ."
b101010 5"
b1010100 /
b1010100 q
b1010100 ~
1("
0'"
b11 c
1N
#568
0N
#570
02
b11010 *"
b11010 -"
b11010 4"
1Q
1G
#572
1h
b101011 +"
b101011 ."
b101011 5"
b1010110 /
b1010110 q
b1010110 ~
1)"
0("
1'"
1N
#576
0N
#580
b101100 +"
b101100 ."
b101100 5"
b1011000 /
b1011000 q
b1011000 ~
0)"
1("
0'"
1i
1N
0Q
#584
0N
#588
1Y
1j
b101101 +"
b101101 ."
b101101 5"
b1011010 /
b1011010 q
b1011010 ~
1)"
0("
1N
#590
12
b11011 *"
b11011 -"
b11011 4"
1Q
#592
0N
#596
b101110 +"
b101110 ."
b101110 5"
b1011100 /
b1011100 q
b1011100 ~
0)"
1'"
b10 c
1N
#600
0N
0Q
0G
#604
b1 c
0h
b101111 +"
b101111 ."
b101111 5"
b1011110 /
b1011110 q
b1011110 ~
1("
0'"
1N
#608
0N
#610
02
b11100 *"
b11100 -"
b11100 4"
1Q
#612
b110000 +"
b110000 ."
b110000 5"
b1100000 /
b1100000 q
b1100000 ~
1)"
0("
1'"
b0 c
0i
1N
#616
0N
#620
0Y
0j
b110001 +"
b110001 ."
b110001 5"
b1100010 /
b1100010 q
b1100010 ~
0)"
1("
0'"
1N
0Q
#624
0N
#628
b110010 +"
b110010 ."
b110010 5"
b1100100 /
b1100100 q
b1100100 ~
1)"
0("
b11 c
1N
#630
12
b11101 *"
b11101 -"
b11101 4"
1Q
1G
#632
0N
#636
1h
b110011 +"
b110011 ."
b110011 5"
b1100110 /
b1100110 q
b1100110 ~
0)"
1'"
1N
#640
0N
0Q
#644
b110100 +"
b110100 ."
b110100 5"
b1101000 /
b1101000 q
b1101000 ~
1("
0'"
1i
1N
#648
0N
#650
02
b11110 *"
b11110 -"
b11110 4"
1Q
#652
1Y
1j
b110101 +"
b110101 ."
b110101 5"
b1101010 /
b1101010 q
b1101010 ~
1)"
0("
1'"
1N
#656
0N
#660
b110110 +"
b110110 ."
b110110 5"
b1101100 /
b1101100 q
b1101100 ~
0)"
1("
0'"
b10 c
0h
1N
0Q
0G
#664
0N
#668
b1 c
0i
b110111 +"
b110111 ."
b110111 5"
b1101110 /
b1101110 q
b1101110 ~
1)"
0("
1N
#670
12
b11111 *"
b11111 -"
b11111 4"
b1111110111101000 r
b1111110111101000 9"
bx s
bx 2"
1Q
#672
0N
#676
b111000 +"
b111000 ."
b111000 5"
b1110000 /
b1110000 q
b1110000 ~
0)"
1'"
b0 c
0Y
0j
1N
#680
0N
0Q
#684
b11 c
b111001 +"
b111001 ."
b111001 5"
b1110010 /
b1110010 q
b1110010 ~
1("
0'"
1N
#688
0N
#690
02
b0 8
b0 t
b0 ;
b0 u
b0 ?
b0 v
0.
0""
b0 *"
b0 -"
b0 4"
b0 %"
0S
1Q
1G
#692
b1110100 /
b1110100 q
b1110100 ~
1w
b1010 z
b0 +"
b0 ."
b0 5"
1>
1!"
19
1&"
0}
1)"
0("
1'"
1h
1N
#696
0N
#700
1i
0)"
1("
0'"
b1010 z
1N
0Q
#704
0N
#708
1)"
0("
b1010 z
1Y
1j
1N
#710
0D
1Q
#712
0N
#716
b10 c
0)"
1'"
b1010 z
1N
#720
0N
0Q
1A
1C
0G
#724
1("
0'"
b1010 z
b0 b
b101 W
0-
1!
1@
b1 c
0h
1N
#728
0N
#730
1D
1Q
#732
b100 W
0-
0!
0@
b0 c
0i
1)"
0("
1'"
b1010 z
1N
#736
0N
#740
0)"
1("
0'"
b1010 z
b11 W
0-
0Y
0j
1N
0O
0Q
#744
0N
#748
1/"
06"
b10 W
0-
b11 c
0{
1)"
0("
b1010 z
1N
#750
12
b11111 8
b11111 t
b101111 ;
b101111 u
b1000 ?
b1000 v
b1 *"
b1 -"
b1 4"
1.
1""
b1111110111101000 %"
0)
1S
1Q
0F
0A
0C
1G
#752
0N
#756
0/"
1n
0,
0#"
0>
0!"
09
0&"
0)"
1'"
b1001 z
1=
13
1^
b1 W
1h
1N
#760
0N
0Q
#764
06
07
0[
0Z
b0 W
1i
b101 x
b100 z
1>
1!"
19
1&"
1("
0'"
1N
#768
0N
#770
02
bx r
bx 9"
b10 *"
b10 -"
b10 4"
1Q
#772
1}
1)"
0("
1'"
b1 b
1!
1@
1Y
1j
1N
#776
0N
#780
b10 c
0h
0)"
1("
0'"
1N
0Q
0G
#784
0N
#788
1)"
0("
b1 c
0i
1N
#790
12
bx 8
bx t
bx ;
bx u
bx ?
bx v
b11 *"
b11 -"
b11 4"
bx %"
1Q
#792
0N
#796
b10 b
b0 c
0Y
0j
0)"
1'"
1N
#800
0N
0Q
#804
1("
0'"
b11 c
1N
#808
0N
#810
02
b11000000111001 s
b11000000111001 2"
b100 *"
b100 -"
b100 4"
1Q
1G
#812
1h
1)"
0("
1'"
1N
#816
0N
#820
0)"
1("
0'"
1i
1N
0Q
#824
0N
#828
b11 b
1Y
1j
1)"
0("
1N
#830
12
b101 *"
b101 -"
b101 4"
b1000011100010 s
b1000011100010 2"
1Q
#832
0N
#836
0)"
1'"
b10 c
1N
#840
0N
0Q
0G
#844
b1 c
0h
1("
0'"
1N
#848
0N
#850
02
b10001010111000 s
b10001010111000 2"
b110 *"
b110 -"
b110 4"
1Q
#852
1)"
0("
1'"
b0 c
0i
1N
#856
0N
#860
b100 b
0m
0Y
0j
0)"
1("
0'"
1N
0Q
#864
0N
#868
1)"
0("
b11 c
1N
#870
12
b111 *"
b111 -"
b111 4"
b1000100111110 s
b1000100111110 2"
17
16
1Q
1F
1G
#872
0N
#876
1)
0n
1[
1Z
03
0^
0=
1h
0)"
1'"
1N
#880
0N
0Q
#884
0>
0!"
09
0&"
1("
0'"
b11 z
1i
1N
#888
0N
#890
02
b1010110110011 s
b1010110110011 2"
b1000 *"
b1000 -"
b1000 4"
1Q
#892
b101 b
1Y
1j
1)"
0("
1'"
b10 z
1N
#896
0N
#900
0)"
1("
0'"
b1 z
b10 c
0h
1N
0Q
0G
#904
0N
#908
1/"
b1 c
0i
1,
1#"
1)"
0("
b0 z
1N
#910
12
b1001 *"
b1001 -"
b1001 4"
b1100111011110 s
b1100111011110 2"
1Q
#912
0N
#916
0w
b100 x
0)"
1'"
b110 b
b0 c
0Y
0j
1N
#920
0N
0Q
#924
b11 c
b11 x
1("
0'"
1N
#928
0N
#930
02
b100001101010000 s
b100001101010000 2"
b1010 *"
b1010 -"
b1010 4"
1Q
1G
#932
b10 x
1)"
0("
1'"
1h
1N
#936
0N
#940
1i
b1 x
0)"
1("
0'"
1N
0Q
#944
0N
#948
b0 x
1)"
0("
1Y
1j
1N
#950
12
b1011 *"
b1011 -"
b1011 4"
b1110000100 s
b1110000100 2"
1Q
#952
0N
#956
b10 c
b1 +"
b1 ."
b1 5"
b1110110 /
b1110110 q
b1110110 ~
0)"
1'"
1N
#960
0N
0Q
0G
#964
b10 +"
b10 ."
b10 5"
b1111000 /
b1111000 q
b1111000 ~
1("
0'"
b1 c
0h
1N
#968
0N
#970
02
b110100100 s
b110100100 2"
b1100 *"
b1100 -"
b1100 4"
1Q
#972
b0 c
0i
b11 +"
b11 ."
b11 5"
b1111010 /
b1111010 q
b1111010 ~
1)"
0("
1'"
1N
#976
0N
#980
b100 +"
b100 ."
b100 5"
b1111100 /
b1111100 q
b1111100 ~
0)"
1("
0'"
1m
0Y
0j
1N
0Q
#984
0N
#988
b11 c
b101 +"
b101 ."
b101 5"
b1111110 /
b1111110 q
b1111110 ~
1)"
0("
1N
#990
12
b1101 *"
b1101 -"
b1101 4"
b1000101 s
b1000101 2"
1Q
1G
#992
0N
#996
b110 +"
b110 ."
b110 5"
b10000000 /
b10000000 q
b10000000 ~
0)"
1'"
1h
1N
#1000
0N
0Q
#1004
1i
b111 +"
b111 ."
b111 5"
b10000010 /
b10000010 q
b10000010 ~
1("
0'"
1N
#1008
0N
#1010
02
b1111110111101000 s
b1111110111101000 2"
b1110 *"
b1110 -"
b1110 4"
1Q
#1012
b1000 +"
b1000 ."
b1000 5"
b10000100 /
b10000100 q
b10000100 ~
1)"
0("
1'"
1Y
1j
1N
#1016
0N
#1020
b10 c
0h
b1001 +"
b1001 ."
b1001 5"
b10000110 /
b10000110 q
b10000110 ~
0)"
1("
0'"
1N
0Q
0G
#1024
0N
#1028
b1010 +"
b1010 ."
b1010 5"
b10001000 /
b10001000 q
b10001000 ~
1)"
0("
b1 c
0i
1N
#1030
12
b1111 *"
b1111 -"
b1111 4"
1Q
#1032
0N
#1036
b0 c
0Y
0j
b1011 +"
b1011 ."
b1011 5"
b10001010 /
b10001010 q
b10001010 ~
0)"
1'"
1N
#1040
0N
0Q
#1044
b1100 +"
b1100 ."
b1100 5"
b10001100 /
b10001100 q
b10001100 ~
1("
0'"
b11 c
1N
#1048
0N
#1050
02
b10000 *"
b10000 -"
b10000 4"
1Q
1G
#1052
1h
b1101 +"
b1101 ."
b1101 5"
b10001110 /
b10001110 q
b10001110 ~
1)"
0("
1'"
1N
#1056
0N
#1060
b1110 +"
b1110 ."
b1110 5"
b10010000 /
b10010000 q
b10010000 ~
0)"
1("
0'"
1i
1N
0Q
#1064
0N
#1068
1Y
1j
b1111 +"
b1111 ."
b1111 5"
b10010010 /
b10010010 q
b10010010 ~
1)"
0("
1N
#1070
12
b10001 *"
b10001 -"
b10001 4"
1Q
#1072
0N
#1076
b10000 +"
b10000 ."
b10000 5"
b10010100 /
b10010100 q
b10010100 ~
0)"
1'"
b10 c
1N
#1080
0N
0Q
0G
#1084
b1 c
0h
b10001 +"
b10001 ."
b10001 5"
b10010110 /
b10010110 q
b10010110 ~
1("
0'"
1N
#1088
0N
#1090
02
b10010 *"
b10010 -"
b10010 4"
1Q
#1092
b10010 +"
b10010 ."
b10010 5"
b10011000 /
b10011000 q
b10011000 ~
1)"
0("
1'"
b0 c
0i
1N
#1096
0N
#1100
0Y
0j
b10011 +"
b10011 ."
b10011 5"
b10011010 /
b10011010 q
b10011010 ~
0)"
1("
0'"
1N
0Q
#1104
0N
#1108
b10100 +"
b10100 ."
b10100 5"
b10011100 /
b10011100 q
b10011100 ~
1)"
0("
b11 c
1N
#1110
12
b10011 *"
b10011 -"
b10011 4"
1Q
1G
#1112
0N
#1116
1h
b10101 +"
b10101 ."
b10101 5"
b10011110 /
b10011110 q
b10011110 ~
0)"
1'"
1N
#1120
0N
0Q
#1124
b10110 +"
b10110 ."
b10110 5"
b10100000 /
b10100000 q
b10100000 ~
1("
0'"
1i
1N
#1128
0N
#1130
02
b10100 *"
b10100 -"
b10100 4"
1Q
