tb_.vcd
$date
	Mon Mar 16 12:37:54 2026
$end
$version
	Icarus Verilog
$end
$timescale
	1s
$end
$scope module tb $end
$var wire 20 ! maxVramAddress [19:0] $end
$var wire 1 " write_en $end
$var wire 20 # vramAddress [19:0] $end
$var wire 10 $ verticalCount [9:0] $end
$var wire 1 % valid $end
$var wire 1 & read_en $end
$var wire 11 ' horizontalCount [10:0] $end
$var wire 20 ( genVramAddress [19:0] $end
$var wire 1 ) full $end
$var wire 1 * frameEnd $end
$var wire 1 + empty $end
$var wire 1 , done $end
$var wire 16 - dataOut [15:0] $end
$var wire 1 . almostFull $end
$var wire 1 / VSYNC $end
$var wire 1 0 VALID_PIXELS $end
$var wire 5 1 Ri [4:0] $end
$var wire 1 2 RD $end
$var wire 1 3 HSYNC $end
$var wire 6 4 Gi [5:0] $end
$var wire 1 5 CE $end
$var wire 5 6 Bi [4:0] $end
$var parameter 32 7 CLK_PERIOD $end
$var parameter 32 8 PIXELCLK_PERIOD $end
$var reg 1 9 bus_free $end
$var reg 1 : clk $end
$var reg 1 ; pixelClock $end
$var reg 1 < rst_n $end
$var reg 16 = vramDataBus [15:0] $end
$scope module gsc $end
$var wire 1 < RESET $end
$var wire 1 ; clock $end
$var reg 1 3 HSYNC $end
$var reg 1 > VALID_H $end
$var reg 1 0 VALID_PIXELS $end
$var reg 1 ? VALID_V $end
$var reg 1 / VSYNC $end
$var reg 11 @ horizontalCount [10:0] $end
$var reg 10 A verticalCount [9:0] $end
$var reg 20 B vramAddress [19:0] $end
$upscope $end
$scope module testfifo $end
$var wire 1 < RESET $end
$var wire 1 . almostFull $end
$var wire 16 C din [15:0] $end
$var wire 1 + empty $end
$var wire 1 ) full $end
$var wire 1 ; rclk $end
$var wire 1 % valid $end
$var wire 1 D wclk $end
$var wire 1 " write_en $end
$var wire 1 & read_en $end
$var wire 16 E dout [15:0] $end
$var reg 1 F holdOffForASec $end
$var reg 1 G ialmostFull $end
$var reg 1 H ifull $end
$var reg 1 I init $end
$var reg 1 J iread_en $end
$var reg 1 K iwrite_en $end
$var reg 8 L r_ptr [7:0] $end
$var reg 8 M w_ptr [7:0] $end
$scope module theBlock $end
$var wire 16 N din [15:0] $end
$var wire 8 O raddr [7:0] $end
$var wire 1 ; rclk $end
$var wire 8 P waddr [7:0] $end
$var wire 1 D wclk $end
$var wire 1 K write_en $end
$var parameter 32 Q addr_width $end
$var parameter 32 R data_width $end
$var reg 16 S dout [15:0] $end
$upscope $end
$upscope $end
$scope module testramthingy $end
$var wire 1 < RESET $end
$var wire 1 . almostFull $end
$var wire 1 9 bus_free $end
$var wire 1 5 chipEnable $end
$var wire 1 : clock $end
$var wire 16 T dataInputBus [15:0] $end
$var wire 1 , done $end
$var wire 1 + empty $end
$var wire 16 U fifoDataOut [15:0] $end
$var wire 1 & fifoRead $end
$var wire 1 " fifoWrite $end
$var wire 1 * frameEnd $end
$var wire 1 ) full $end
$var wire 20 V maxVramAddress [19:0] $end
$var wire 20 W nextVramAddress [19:0] $end
$var wire 1 ; pixelClock $end
$var wire 1 2 readSignal $end
$var wire 1 % valid $end
$var wire 1 0 vblank $end
$var wire 5 X Ri [4:0] $end
$var wire 6 Y Gi [5:0] $end
$var wire 5 Z Bi [4:0] $end
$var reg 1 [ doCycle $end
$var reg 16 \ iDataFromVram [15:0] $end
$var reg 20 ] iNextVramAddress [19:0] $end
$var reg 1 ^ ichipEnable $end
$var reg 1 _ idone $end
$var reg 1 ` ififoRead $end
$var reg 1 a ififoWrite $end
$var reg 1 b iframeEnd $end
$var reg 16 c ipixelOutput [15:0] $end
$var reg 1 d ireadSignal $end
$var reg 20 e pixelClockAddress [19:0] $end
$upscope $end
$upscope $end
$enddefinitions $end
$comment Show the parameter values. $end
$dumpall
b10000 R
b1000 Q
b1010 8
b100 7
$end
#0
$dumpvars
bx e
xd
bx c
xb
xa
x`
x_
x^
bx ]
bx \
x[
bx Z
bx Y
bx X
bx W
b10010110000000000000 V
bx U
bx T
bx S
bx P
bx O
bx N
bx M
bx L
xK
xJ
xI
xH
xG
xF
bx E
xD
bx C
bx B
bx A
bx @
x?
x>
bx =
x<
x;
x:
x9
bx 6
x5
bx 4
x3
x2
bx 1
x0
x/
x.
bx -
x,
x+
x*
x)
bx (
bx '
x&
x%
bx $
bx #
x"
b10010110000000000000 !
$end
#4
b110100100 =
b110100100 C
b110100100 N
b110100100 T
#8
b1000101011010 =
b1000101011010 C
b1000101011010 N
b1000101011010 T
#10
b0 1
b0 X
b0 4
b0 Y
b0 6
b0 Z
1/
1?
1>
13
0J
b0 c
1;
09
#12
b1101100100000011 =
b1101100100000011 C
b1101100100000011 N
b1101100100000011 T
#13
1<
#16
b10011010010 =
b10011010010 C
b10011010010 N
b10011010010 T
#20
b1000101 =
b1000101 C
b1000101 N
b1000101 T
0;
#24
b1101101010100 =
b1101101010100 C
b1101101010100 N
b1101101010100 T
#25
0%
0F
0I
0K
b0 M
b0 P
b0 #
b0 B
b0 $
b0 A
b0 '
b0 @
1D
0:
0<
#26
1,
1_
0[
0"
0a
15
1^
12
1d
b11111111111111111110 (
b11111111111111111110 W
b11111111111111111110 ]
0D
1:
#28
1D
0:
b110100100 =
b110100100 C
b110100100 N
b110100100 T
#30
b11111 1
b11111 X
b111111 4
b111111 Y
b11110 6
b11110 Z
1*
1b
0&
0`
b1111111111111110 c
b0 e
b0 L
b0 O
0D
1:
1;
#32
1+
0)
0H
0.
0G
1D
0:
b1000101011010 =
b1000101011010 C
b1000101011010 N
b1000101011010 T
#34
0,
0_
0D
1:
#36
1D
0:
b1101100100000011 =
b1101100100000011 C
b1101100100000011 N
b1101100100000011 T
#38
0D
1:
#40
1D
0:
b10011010010 =
b10011010010 C
b10011010010 N
b10011010010 T
0;
#42
0D
1:
#44
1D
0:
b1000101 =
b1000101 C
b1000101 N
b1000101 T
#46
0D
1:
#48
1D
0:
b1101101010100 =
b1101101010100 C
b1101101010100 N
b1101101010100 T
#50
0D
1:
1;
#52
1D
0:
b110100100 =
b110100100 C
b110100100 N
b110100100 T
#54
0D
1:
#56
1D
0:
b1000101011010 =
b1000101011010 C
b1000101011010 N
b1000101011010 T
#58
0D
1:
#60
1D
0:
b1101100100000011 =
b1101100100000011 C
b1101100100000011 N
b1101100100000011 T
0;
#62
0D
1:
#64
1D
0:
b10011010010 =
b10011010010 C
b10011010010 N
b10011010010 T
#66
0D
1:
#68
1D
0:
b1000101 =
b1000101 C
b1000101 N
b1000101 T
#70
0D
1:
1;
#72
1D
0:
b1101101010100 =
b1101101010100 C
b1101101010100 N
b1101101010100 T
#74
0D
1:
#76
1D
0:
b110100100 =
b110100100 C
b110100100 N
b110100100 T
#78
0D
1:
#80
1D
0:
b1000101011010 =
b1000101011010 C
b1000101011010 N
b1000101011010 T
0;
#82
0D
1:
#84
1D
0:
b1101100100000011 =
b1101100100000011 C
b1101100100000011 N
b1101100100000011 T
#86
0D
1:
#88
1D
0:
b10011010010 =
b10011010010 C
b10011010010 N
b10011010010 T
#90
0D
1:
1;
#92
1D
0:
b1000101 =
b1000101 C
b1000101 N
b1000101 T
#94
0D
1:
#96
1D
0:
b1101101010100 =
b1101101010100 C
b1101101010100 N
b1101101010100 T
#98
0D
1:
#100
1D
0:
b110100100 =
b110100100 C
b110100100 N
b110100100 T
0;
#102
1<
0D
1:
#104
1F
1D
0:
b1000101011010 =
b1000101011010 C
b1000101011010 N
b1000101011010 T
#106
0D
1:
#108
1D
0:
b1101100100000011 =
b1101100100000011 C
b1101100100000011 N
b1101100100000011 T
#110
b0 1
b0 X
b0 4
b0 Y
b0 6
b0 Z
10
b10 #
b10 B
b1 '
b1 @
b0 c
0D
1:
1;
#112
1D
0:
b10011010010 =
b10011010010 C
b10011010010 N
b10011010010 T
#114
0D
1:
#116
1D
0:
b1000101 =
b1000101 C
b1000101 N
b1000101 T
#118
0D
1:
#120
1D
0:
b1101101010100 =
b1101101010100 C
b1101101010100 N
b1101101010100 T
0;
#122
0D
1:
#124
1D
0:
b110100100 =
b110100100 C
b110100100 N
b110100100 T
#126
0D
1:
#128
1D
0:
b1000101011010 =
b1000101011010 C
b1000101011010 N
b1000101011010 T
#130
bx 1
bx X
bx 4
bx Y
bx 6
bx Z
b100 #
b100 B
b10 '
b10 @
0*
0b
1&
1`
b10 e
bx c
0D
1:
1;
#132
1D
0:
b1101100100000011 =
b1101100100000011 C
b1101100100000011 N
b1101100100000011 T
#134
1"
1a
1[
b0 (
b0 W
b0 ]
05
0^
02
0d
0D
1:
#136
1%
0+
0F
1I
b1 M
b1 P
1K
b10011010010 \
1D
0:
b10011010010 =
b10011010010 C
b10011010010 N
b10011010010 T
#138
b10 (
b10 W
b10 ]
0D
1:
#140
b10 M
b10 P
b1000101 \
1D
0:
b1000101 =
b1000101 C
b1000101 N
b1000101 T
0;
#142
b100 (
b100 W
b100 ]
0D
1:
#144
b11 M
b11 P
b1101101010100 \
1D
0:
b1101101010100 =
b1101101010100 C
b1101101010100 N
b1101101010100 T
#146
b110 (
b110 W
b110 ]
0D
1:
#148
b100 M
b100 P
b110100100 \
1D
0:
b110100100 =
b110100100 C
b110100100 N
b110100100 T
#150
b1000 (
b1000 W
b1000 ]
b110 #
b110 B
b11 '
b11 @
b100 e
b1 L
b1 O
1J
0D
1:
1;
#152
b101 M
b101 P
b1000101011010 \
1D
0:
b1000101011010 =
b1000101011010 C
b1000101011010 N
b1000101011010 T
#154
b1010 (
b1010 W
b1010 ]
0D
1:
#156
b110 M
b110 P
b1101100100000011 \
1D
0:
b1101100100000011 =
b1101100100000011 C
b1101100100000011 N
b1101100100000011 T
#158
b1100 (
b1100 W
b1100 ]
0D
1:
#160
b111 M
b111 P
b10011010010 \
1D
0:
b10011010010 =
b10011010010 C
b10011010010 N
b10011010010 T
0;
#162
b1110 (
b1110 W
b1110 ]
0D
1:
#164
b1000 M
b1000 P
b1000101 \
1D
0:
b1000101 =
b1000101 C
b1000101 N
b1000101 T
#166
b10000 (
b10000 W
b10000 ]
0D
1:
#168
b1001 M
b1001 P
b1101101010100 \
1D
0:
b1101101010100 =
b1101101010100 C
b1101101010100 N
b1101101010100 T
#170
b10010 (
b10010 W
b10010 ]
b1000 #
b1000 B
b100 '
b100 @
b1000101 -
b1000101 E
b1000101 S
b1000101 U
b10 L
b10 O
b110 e
0D
1:
1;
#172
b1010 M
b1010 P
b110100100 \
1D
0:
b110100100 =
b110100100 C
b110100100 N
b110100100 T
#174
b10100 (
b10100 W
b10100 ]
0D
1:
#176
b1011 M
b1011 P
b1000101011010 \
1D
0:
b1000101011010 =
b1000101011010 C
b1000101011010 N
b1000101011010 T
#178
b10110 (
b10110 W
b10110 ]
0D
1:
#180
b1100 M
b1100 P
b1101100100000011 \
1D
0:
b1101100100000011 =
b1101100100000011 C
b1101100100000011 N
b1101100100000011 T
0;
#182
b11000 (
b11000 W
b11000 ]
0D
1:
#184
b1101 M
b1101 P
b10011010010 \
1D
0:
b10011010010 =
b10011010010 C
b10011010010 N
b10011010010 T
#186
b11010 (
b11010 W
b11010 ]
0D
1:
#188
b1110 M
b1110 P
b1000101 \
1D
0:
b1000101 =
b1000101 C
b1000101 N
b1000101 T
#190
b0 1
b0 X
b10 4
b10 Y
b101 6
b101 Z
b11100 (
b11100 W
b11100 ]
b1010 #
b1010 B
b101 '
b101 @
b1000 e
b1000101 c
b11 L
b11 O
b1101101010100 -
b1101101010100 E
b1101101010100 S
b1101101010100 U
0D
1:
1;
#192
b1111 M
b1111 P
b1101101010100 \
1D
0:
b1101101010100 =
b1101101010100 C
b1101101010100 N
b1101101010100 T
#194
b11110 (
b11110 W
b11110 ]
0D
1:
#196
b10000 M
b10000 P
b110100100 \
1D
0:
b110100100 =
b110100100 C
b110100100 N
b110100100 T
#198
b100000 (
b100000 W
b100000 ]
0D
1:
#200
b10001 M
b10001 P
b1000101011010 \
1D
0:
b1000101011010 =
b1000101011010 C
b1000101011010 N
b1000101011010 T
0;
#202
b100010 (
b100010 W
b100010 ]
0D
1:
#204
b10010 M
b10010 P
b1101100100000011 \
1D
0:
b1101100100000011 =
b1101100100000011 C
b1101100100000011 N
b1101100100000011 T
#206
b100100 (
b100100 W
b100100 ]
0D
1:
#208
b10011 M
b10011 P
b10011010010 \
1D
0:
b10011010010 =
b10011010010 C
b10011010010 N
b10011010010 T
#210
b11 1
b11 X
b11010 4
b11010 Y
b10100 6
b10100 Z
b100110 (
b100110 W
b100110 ]
b1100 #
b1100 B
b110 '
b110 @
b110100100 -
b110100100 E
b110100100 S
b110100100 U
b100 L
b100 O
b1010 e
b1101101010100 c
0D
1:
1;
#212
b10100 M
b10100 P
b1000101 \
1D
0:
b1000101 =
b1000101 C
b1000101 N
b1000101 T
#214
b101000 (
b101000 W
b101000 ]
0D
1:
#216
b10101 M
b10101 P
b1101101010100 \
1D
0:
b1101101010100 =
b1101101010100 C
b1101101010100 N
b1101101010100 T
#218
b101010 (
b101010 W
b101010 ]
0D
1:
#220
b10110 M
b10110 P
b110100100 \
1D
0:
b110100100 =
b110100100 C
b110100100 N
b110100100 T
0;
#222
b101100 (
b101100 W
b101100 ]
0D
1:
#224
b10111 M
b10111 P
b1000101011010 \
1D
0:
b1000101011010 =
b1000101011010 C
b1000101011010 N
b1000101011010 T
#226
b101110 (
b101110 W
b101110 ]
0D
1:
#228
b11000 M
b11000 P
b1101100100000011 \
1D
0:
b1101100100000011 =
b1101100100000011 C
b1101100100000011 N
b1101100100000011 T
#230
b0 1
b0 X
b1101 4
b1101 Y
b100 6
b100 Z
b110000 (
b110000 W
b110000 ]
b1110 #
b1110 B
b111 '
b111 @
b1100 e
b110100100 c
b101 L
b101 O
b1000101011010 -
b1000101011010 E
b1000101011010 S
b1000101011010 U
0D
1:
1;
#232
b11001 M
b11001 P
b10011010010 \
1D
0:
b10011010010 =
b10011010010 C
b10011010010 N
b10011010010 T
#234
b110010 (
b110010 W
b110010 ]
0D
1:
#236
b11010 M
b11010 P
b1000101 \
1D
0:
b1000101 =
b1000101 C
b1000101 N
b1000101 T
#238
b110100 (
b110100 W
b110100 ]
0D
1:
#240
b11011 M
b11011 P
b1101101010100 \
1D
0:
b1101101010100 =
b1101101010100 C
b1101101010100 N
b1101101010100 T
0;
#242
b110110 (
b110110 W
b110110 ]
0D
1:
#244
b11100 M
b11100 P
b110100100 \
1D
0:
b110100100 =
b110100100 C
b110100100 N
b110100100 T
#246
b111000 (
b111000 W
b111000 ]
0D
1:
#248
b11101 M
b11101 P
b1000101011010 \
1D
0:
b1000101011010 =
b1000101011010 C
b1000101011010 N
b1000101011010 T
#250
b10 1
b10 X
b1010 4
b1010 Y
b11010 6
b11010 Z
b111010 (
b111010 W
b111010 ]
b10000 #
b10000 B
b1000 '
b1000 @
b1101100100000011 -
b1101100100000011 E
b1101100100000011 S
b1101100100000011 U
b110 L
b110 O
b1110 e
b1000101011010 c
0D
1:
1;
#252
b11110 M
b11110 P
b1101100100000011 \
1D
0:
b1101100100000011 =
b1101100100000011 C
b1101100100000011 N
b1101100100000011 T
#254
b111100 (
b111100 W
b111100 ]
0D
1:
#256
b11111 M
b11111 P
b10011010010 \
1D
0:
b10011010010 =
b10011010010 C
b10011010010 N
b10011010010 T
#258
b111110 (
b111110 W
b111110 ]
0D
1:
#260
b100000 M
b100000 P
b1000101 \
1D
0:
b1000101 =
b1000101 C
b1000101 N
b1000101 T
0;
#262
b1000000 (
b1000000 W
b1000000 ]
0D
1:
#264
b100001 M
b100001 P
b1101101010100 \
1D
0:
b1101101010100 =
b1101101010100 C
b1101101010100 N
b1101101010100 T
#266
b1000010 (
b1000010 W
b1000010 ]
0D
1:
#268
b100010 M
b100010 P
b110100100 \
1D
0:
b110100100 =
b110100100 C
b110100100 N
b110100100 T
#270
b11011 1
b11011 X
b1000 4
b1000 Y
b11 6
b11 Z
b1000100 (
b1000100 W
b1000100 ]
b10010 #
b10010 B
b1001 '
b1001 @
b10000 e
b1101100100000011 c
b111 L
b111 O
b10011010010 -
b10011010010 E
b10011010010 S
b10011010010 U
0D
1:
1;
#272
b100011 M
b100011 P
b1000101011010 \
1D
0:
b1000101011010 =
b1000101011010 C
b1000101011010 N
b1000101011010 T
#274
b1000110 (
b1000110 W
b1000110 ]
0D
1:
#276
b100100 M
b100100 P
b1101100100000011 \
1D
0:
b1101100100000011 =
b1101100100000011 C
b1101100100000011 N
b1101100100000011 T
#278
b1001000 (
b1001000 W
b1001000 ]
0D
1:
#280
b100101 M
b100101 P
b10011010010 \
1D
0:
b10011010010 =
b10011010010 C
b10011010010 N
b10011010010 T
0;
#282
b1001010 (
b1001010 W
b1001010 ]
0D
1:
#284
b100110 M
b100110 P
b1000101 \
1D
0:
b1000101 =
b1000101 C
b1000101 N
b1000101 T
#286
b1001100 (
b1001100 W
b1001100 ]
0D
1:
#288
b100111 M
b100111 P
b1101101010100 \
1D
0:
b1101101010100 =
b1101101010100 C
b1101101010100 N
b1101101010100 T
#290
b0 1
b0 X
b100110 4
b100110 Y
b10010 6
b10010 Z
b1001110 (
b1001110 W
b1001110 ]
b10100 #
b10100 B
b1010 '
b1010 @
b1000101 -
b1000101 E
b1000101 S
b1000101 U
b1000 L
b1000 O
b10010 e
b10011010010 c
0D
1:
1;
#292
b101000 M
b101000 P
b110100100 \
1D
0:
b110100100 =
b110100100 C
b110100100 N
b110100100 T
#294
b1010000 (
b1010000 W
b1010000 ]
0D
1:
#296
b101001 M
b101001 P
b1000101011010 \
1D
0:
b1000101011010 =
b1000101011010 C
b1000101011010 N
b1000101011010 T
#298
b1010010 (
b1010010 W
b1010010 ]
0D
1:
#300
b101010 M
b101010 P
b1101100100000011 \
1D
0:
b1101100100000011 =
b1101100100000011 C
b1101100100000011 N
b1101100100000011 T
0;
#302
b1010100 (
b1010100 W
b1010100 ]
0D
1:
#304
b101011 M
b101011 P
b10011010010 \
1D
0:
b10011010010 =
b10011010010 C
b10011010010 N
b10011010010 T
#306
b1010110 (
b1010110 W
b1010110 ]
0D
1:
#308
b101100 M
b101100 P
b1000101 \
1D
0:
b1000101 =
b1000101 C
b1000101 N
b1000101 T
#310
b10 4
b10 Y
b101 6
b101 Z
b1011000 (
b1011000 W
b1011000 ]
b10110 #
b10110 B
b1011 '
b1011 @
b10100 e
b1000101 c
b1001 L
b1001 O
b1101101010100 -
b1101101010100 E
b1101101010100 S
b1101101010100 U
0D
1:
1;
#312
b101101 M
b101101 P
b1101101010100 \
1D
0:
b1101101010100 =
b1101101010100 C
b1101101010100 N
b1101101010100 T
#314
b1011010 (
b1011010 W
b1011010 ]
0D
1:
#316
b101110 M
b101110 P
b110100100 \
1D
0:
b110100100 =
b110100100 C
b110100100 N
b110100100 T
#318
b1011100 (
b1011100 W
b1011100 ]
0D
1:
#320
b101111 M
b101111 P
b1000101011010 \
1D
0:
b1000101011010 =
b1000101011010 C
b1000101011010 N
b1000101011010 T
0;
#322
b1011110 (
b1011110 W
b1011110 ]
0D
1:
#324
b110000 M
b110000 P
b1101100100000011 \
1D
0:
b1101100100000011 =
b1101100100000011 C
b1101100100000011 N
b1101100100000011 T
#326
b1100000 (
b1100000 W
b1100000 ]
0D
1:
#328
b110001 M
b110001 P
b10011010010 \
1D
0:
b10011010010 =
b10011010010 C
b10011010010 N
b10011010010 T
#330
b11 1
b11 X
b11010 4
b11010 Y
b10100 6
b10100 Z
b1100010 (
b1100010 W
b1100010 ]
b11000 #
b11000 B
b1100 '
b1100 @
b110100100 -
b110100100 E
b110100100 S
b110100100 U
b1010 L
b1010 O
b10110 e
b1101101010100 c
0D
1:
1;
#332
b110010 M
b110010 P
b1000101 \
1D
0:
b1000101 =
b1000101 C
b1000101 N
b1000101 T
#334
b1100100 (
b1100100 W
b1100100 ]
0D
1:
#336
b110011 M
b110011 P
b1101101010100 \
1D
0:
b1101101010100 =
b1101101010100 C
b1101101010100 N
b1101101010100 T
#338
b1100110 (
b1100110 W
b1100110 ]
0D
1:
#340
b110100 M
b110100 P
b110100100 \
1D
0:
b110100100 =
b110100100 C
b110100100 N
b110100100 T
0;
#342
b1101000 (
b1101000 W
b1101000 ]
0D
1:
#344
b110101 M
b110101 P
b1000101011010 \
1D
0:
b1000101011010 =
b1000101011010 C
b1000101011010 N
b1000101011010 T
#346
b1101010 (
b1101010 W
b1101010 ]
0D
1:
#348
b110110 M
b110110 P
b1101100100000011 \
1D
0:
b1101100100000011 =
b1101100100000011 C
b1101100100000011 N
b1101100100000011 T
#350
b0 1
b0 X
b1101 4
b1101 Y
b100 6
b100 Z
b1101100 (
b1101100 W
b1101100 ]
b11010 #
b11010 B
b1101 '
b1101 @
b11000 e
b110100100 c
b1011 L
b1011 O
b1000101011010 -
b1000101011010 E
b1000101011010 S
b1000101011010 U
0D
1:
1;
#352
b110111 M
b110111 P
b10011010010 \
1D
0:
b10011010010 =
b10011010010 C
b10011010010 N
b10011010010 T
#354
b1101110 (
b1101110 W
b1101110 ]
0D
1:
#356
b111000 M
b111000 P
b1000101 \
1D
0:
b1000101 =
b1000101 C
b1000101 N
b1000101 T
#358
b1110000 (
b1110000 W
b1110000 ]
0D
1:
#360
b111001 M
b111001 P
b1101101010100 \
1D
0:
b1101101010100 =
b1101101010100 C
b1101101010100 N
b1101101010100 T
0;
#362
b1110010 (
b1110010 W
b1110010 ]
0D
1:
#364
b111010 M
b111010 P
b110100100 \
1D
0:
b110100100 =
b110100100 C
b110100100 N
b110100100 T
#366
b1110100 (
b1110100 W
b1110100 ]
0D
1:
#368
b111011 M
b111011 P
b1000101011010 \
1D
0:
b1000101011010 =
b1000101011010 C
b1000101011010 N
b1000101011010 T
#370
b10 1
b10 X
b1010 4
b1010 Y
b11010 6
b11010 Z
b1110110 (
b1110110 W
b1110110 ]
b11100 #
b11100 B
b1110 '
b1110 @
b1101100100000011 -
b1101100100000011 E
b1101100100000011 S
b1101100100000011 U
b1100 L
b1100 O
b11010 e
b1000101011010 c
0D
1:
1;
#372
b111100 M
b111100 P
b1101100100000011 \
1D
0:
b1101100100000011 =
b1101100100000011 C
b1101100100000011 N
b1101100100000011 T
#374
b1111000 (
b1111000 W
b1111000 ]
0D
1:
#376
b111101 M
b111101 P
b10011010010 \
1D
0:
b10011010010 =
b10011010010 C
b10011010010 N
b10011010010 T
#378
b1111010 (
b1111010 W
b1111010 ]
0D
1:
#380
b111110 M
b111110 P
b1000101 \
1D
0:
b1000101 =
b1000101 C
b1000101 N
b1000101 T
0;
#382
b1111100 (
b1111100 W
b1111100 ]
0D
1:
#384
b111111 M
b111111 P
b1101101010100 \
1D
0:
b1101101010100 =
b1101101010100 C
b1101101010100 N
b1101101010100 T
#386
b1111110 (
b1111110 W
b1111110 ]
0D
1:
#388
b1000000 M
b1000000 P
b110100100 \
1D
0:
b110100100 =
b110100100 C
b110100100 N
b110100100 T
#390
b11011 1
b11011 X
b1000 4
b1000 Y
b11 6
b11 Z
b10000000 (
b10000000 W
b10000000 ]
b11110 #
b11110 B
b1111 '
b1111 @
b11100 e
b1101100100000011 c
b1101 L
b1101 O
b10011010010 -
b10011010010 E
b10011010010 S
b10011010010 U
0D
1:
1;
#392
b1000001 M
b1000001 P
b1000101011010 \
1D
0:
b1000101011010 =
b1000101011010 C
b1000101011010 N
b1000101011010 T
#394
b10000010 (
b10000010 W
b10000010 ]
0D
1:
#396
b1000010 M
b1000010 P
b1101100100000011 \
1D
0:
b1101100100000011 =
b1101100100000011 C
b1101100100000011 N
b1101100100000011 T
#398
b10000100 (
b10000100 W
b10000100 ]
0D
1:
#400
b1000011 M
b1000011 P
b10011010010 \
1D
0:
b10011010010 =
b10011010010 C
b10011010010 N
b10011010010 T
0;
#402
b10000110 (
b10000110 W
b10000110 ]
0D
1:
#404
b1000100 M
b1000100 P
b1000101 \
1D
0:
b1000101 =
b1000101 C
b1000101 N
b1000101 T
#406
b10001000 (
b10001000 W
b10001000 ]
0D
1:
#408
b1000101 M
b1000101 P
b1101101010100 \
1D
0:
b1101101010100 =
b1101101010100 C
b1101101010100 N
b1101101010100 T
#410
b0 1
b0 X
b100110 4
b100110 Y
b10010 6
b10010 Z
b10001010 (
b10001010 W
b10001010 ]
b100000 #
b100000 B
b10000 '
b10000 @
b1000101 -
b1000101 E
b1000101 S
b1000101 U
b1110 L
b1110 O
b11110 e
b10011010010 c
0D
1:
1;
#412
b1000110 M
b1000110 P
b110100100 \
1D
0:
b110100100 =
b110100100 C
b110100100 N
b110100100 T
#414
b10001100 (
b10001100 W
b10001100 ]
0D
1:
#416
b1000111 M
b1000111 P
b1000101011010 \
1D
0:
b1000101011010 =
b1000101011010 C
b1000101011010 N
b1000101011010 T
#418
b10001110 (
b10001110 W
b10001110 ]
0D
1:
#420
b1001000 M
b1001000 P
b1101100100000011 \
1D
0:
b1101100100000011 =
b1101100100000011 C
b1101100100000011 N
b1101100100000011 T
0;
#422
b10010000 (
b10010000 W
b10010000 ]
0D
1:
#424
b1001001 M
b1001001 P
b10011010010 \
1D
0:
b10011010010 =
b10011010010 C
b10011010010 N
b10011010010 T
#426
b10010010 (
b10010010 W
b10010010 ]
0D
1:
#428
b1001010 M
b1001010 P
b1000101 \
1D
0:
b1000101 =
b1000101 C
b1000101 N
b1000101 T
#430
b10 4
b10 Y
b101 6
b101 Z
b10010100 (
b10010100 W
b10010100 ]
b100010 #
b100010 B
b10001 '
b10001 @
b100000 e
b1000101 c
b1111 L
b1111 O
b1101101010100 -
b1101101010100 E
b1101101010100 S
b1101101010100 U
0D
1:
1;
#432
b1001011 M
b1001011 P
b1101101010100 \
1D
0:
b1101101010100 =
b1101101010100 C
b1101101010100 N
b1101101010100 T
#434
b10010110 (
b10010110 W
b10010110 ]
0D
1:
#436
b1001100 M
b1001100 P
b110100100 \
1D
0:
b110100100 =
b110100100 C
b110100100 N
b110100100 T
#438
b10011000 (
b10011000 W
b10011000 ]
0D
1:
#440
b1001101 M
b1001101 P
b1000101011010 \
1D
0:
b1000101011010 =
b1000101011010 C
b1000101011010 N
b1000101011010 T
0;
#442
b10011010 (
b10011010 W
b10011010 ]
0D
1:
#444
b1001110 M
b1001110 P
b1101100100000011 \
1D
0:
b1101100100000011 =
b1101100100000011 C
b1101100100000011 N
b1101100100000011 T
#446
b10011100 (
b10011100 W
b10011100 ]
0D
1:
#448
b1001111 M
b1001111 P
b10011010010 \
1D
0:
b10011010010 =
b10011010010 C
b10011010010 N
b10011010010 T
#450
b11 1
b11 X
b11010 4
b11010 Y
b10100 6
b10100 Z
b10011110 (
b10011110 W
b10011110 ]
b100100 #
b100100 B
b10010 '
b10010 @
b110100100 -
b110100100 E
b110100100 S
b110100100 U
b10000 L
b10000 O
b100010 e
b1101101010100 c
0D
1:
1;
#452
b1010000 M
b1010000 P
b1000101 \
1D
0:
b1000101 =
b1000101 C
b1000101 N
b1000101 T
#454
b10100000 (
b10100000 W
b10100000 ]
0D
1:
#456
b1010001 M
b1010001 P
b1101101010100 \
1D
0:
b1101101010100 =
b1101101010100 C
b1101101010100 N
b1101101010100 T
#458
b10100010 (
b10100010 W
b10100010 ]
0D
1:
#460
b1010010 M
b1010010 P
b110100100 \
1D
0:
b110100100 =
b110100100 C
b110100100 N
b110100100 T
0;
#462
b10100100 (
b10100100 W
b10100100 ]
0D
1:
#464
b1010011 M
b1010011 P
b1000101011010 \
1D
0:
b1000101011010 =
b1000101011010 C
b1000101011010 N
b1000101011010 T
#466
b10100110 (
b10100110 W
b10100110 ]
0D
1:
#468
b1010100 M
b1010100 P
b1101100100000011 \
1D
0:
b1101100100000011 =
b1101100100000011 C
b1101100100000011 N
b1101100100000011 T
#470
b0 1
b0 X
b1101 4
b1101 Y
b100 6
b100 Z
b10101000 (
b10101000 W
b10101000 ]
b100110 #
b100110 B
b10011 '
b10011 @
b100100 e
b110100100 c
b10001 L
b10001 O
b1000101011010 -
b1000101011010 E
b1000101011010 S
b1000101011010 U
0D
1:
1;
#472
b1010101 M
b1010101 P
b10011010010 \
1D
0:
b10011010010 =
b10011010010 C
b10011010010 N
b10011010010 T
#474
b10101010 (
b10101010 W
b10101010 ]
0D
1:
#476
b1010110 M
b1010110 P
b1000101 \
1D
0:
b1000101 =
b1000101 C
b1000101 N
b1000101 T
#478
b10101100 (
b10101100 W
b10101100 ]
0D
1:
#480
b1010111 M
b1010111 P
b1101101010100 \
1D
0:
b1101101010100 =
b1101101010100 C
b1101101010100 N
b1101101010100 T
0;
#482
b10101110 (
b10101110 W
b10101110 ]
0D
1:
#484
b1011000 M
b1011000 P
b110100100 \
1D
0:
b110100100 =
b110100100 C
b110100100 N
b110100100 T
#486
b10110000 (
b10110000 W
b10110000 ]
0D
1:
#488
b1011001 M
b1011001 P
b1000101011010 \
1D
0:
b1000101011010 =
b1000101011010 C
b1000101011010 N
b1000101011010 T
#490
b10 1
b10 X
b1010 4
b1010 Y
b11010 6
b11010 Z
b10110010 (
b10110010 W
b10110010 ]
b101000 #
b101000 B
b10100 '
b10100 @
b1101100100000011 -
b1101100100000011 E
b1101100100000011 S
b1101100100000011 U
b10010 L
b10010 O
b100110 e
b1000101011010 c
0D
1:
1;
#492
b1011010 M
b1011010 P
b1101100100000011 \
1D
0:
b1101100100000011 =
b1101100100000011 C
b1101100100000011 N
b1101100100000011 T
#494
b10110100 (
b10110100 W
b10110100 ]
0D
1:
#496
b1011011 M
b1011011 P
b10011010010 \
1D
0:
b10011010010 =
b10011010010 C
b10011010010 N
b10011010010 T
#498
b10110110 (
b10110110 W
b10110110 ]
0D
1:
#500
b1011100 M
b1011100 P
b1000101 \
1D
0:
b1000101 =
b1000101 C
b1000101 N
b1000101 T
0;
#502
b10111000 (
b10111000 W
b10111000 ]
0D
1:
