tb_.vcd
$date
	Fri Feb 28 21:24:53 2025
$end
$version
	Icarus Verilog
$end
$timescale
	1s
$end
$scope module tb $end
$var wire 1 ! ADDRESS_OUTPUT_ENABLE $end
$var wire 1 " DATA_OUTPUT_ENABLE $end
$var wire 1 # IOERR $end
$var wire 1 $ IO_RDY $end
$var wire 1 % ISADONE $end
$var wire 1 & MEMCS16 $end
$var wire 1 ' NOWS $end
$var wire 1 ( empty $end
$var wire 1 ) isa_ctrl_out_en $end
$var wire 20 * maxVramAddress [19:0] $end
$var wire 1 + valid $end
$var wire 1 , write_en $end
$var wire 1 - undecidedIsaCycle $end
$var wire 1 . read_en $end
$var wire 20 / genVramAddress [19:0] $end
$var wire 1 0 full $end
$var wire 1 1 frameEnd $end
$var wire 1 2 alreadyDidHsyncReset $end
$var wire 1 3 actualBusCycle $end
$var wire 1 4 TE3 $end
$var wire 1 5 TE2 $end
$var wire 1 6 TE1 $end
$var wire 1 7 TE0 $end
$var wire 5 8 Ri [4:0] $end
$var wire 1 9 RD $end
$var wire 1 : IOCS16 $end
$var wire 6 ; Gi [5:0] $end
$var wire 1 < FPGA_WR $end
$var wire 1 = FPGA_IO_EN $end
$var wire 1 > CE $end
$var wire 5 ? Bi [4:0] $end
$var wire 1 @ ADS_OE $end
$var wire 1 A ADS_LATCH $end
$var parameter 32 B CLK_PERIOD $end
$var reg 1 C BALE $end
$var reg 1 D HSYNC $end
$var reg 1 E IOR $end
$var reg 1 F IOW $end
$var reg 1 G ISA_CLK $end
$var reg 1 H MEMR $end
$var reg 1 I MEMW $end
$var reg 1 J SBHE $end
$var reg 1 K SMEMR $end
$var reg 1 L SMEMW $end
$var reg 1 M VSYNC $end
$var reg 1 N clk $end
$var reg 1 O evenOrOdd $end
$var reg 20 P isaAddressBus [19:0] $end
$var reg 1 Q pixelClock $end
$var reg 1 R rst_n $end
$var reg 1 S vblank $end
$var reg 16 T vramDataBus [15:0] $end
$scope module isathing $end
$var wire 1 A ADS_LATCH $end
$var wire 1 C BALE $end
$var wire 1 N FPGACLK $end
$var wire 1 < FPGA_WR $end
$var wire 1 : IOCS16 $end
$var wire 1 # IOERR $end
$var wire 1 E IOR $end
$var wire 1 F IOW $end
$var wire 1 $ IO_RDY $end
$var wire 1 G ISA_CLK $end
$var wire 1 & MEMCS16 $end
$var wire 1 H MEMR $end
$var wire 1 I MEMW $end
$var wire 1 ' NOWS $end
$var wire 1 R RESET $end
$var wire 1 J SBHE $end
$var wire 1 K SMEMR $end
$var wire 1 L SMEMW $end
$var wire 1 7 TE0 $end
$var wire 1 6 TE1 $end
$var wire 1 5 TE2 $end
$var wire 1 4 TE3 $end
$var wire 1 3 actual_bus_cycle $end
$var wire 20 U addressBus [19:0] $end
$var wire 1 % done $end
$var wire 1 V memoryCyclesEnabled $end
$var wire 1 - undecidedIsaCycle $end
$var wire 1 = FPGA_IO_EN $end
$var wire 1 @ ADS_OE $end
$var reg 3 W FPGA_IO_WAITCTR [2:0] $end
$var reg 1 X TE0i $end
$var reg 1 Y TE1i $end
$var reg 1 Z TE2i $end
$var reg 1 [ TE3i $end
$var reg 1 \ absIOR $end
$var reg 1 ] absIOW $end
$var reg 1 ^ absMEMR $end
$var reg 1 _ absMEMW $end
$var reg 1 ` absSMEMR $end
$var reg 1 a absSMEMW $end
$var reg 1 3 actualBusCycle $end
$var reg 2 b baleassertctr [1:0] $end
$var reg 1 c fastBALE $end
$var reg 1 d fastSBHE $end
$var reg 1 @ iADS_OE $end
$var reg 1 = iFPGA_IO_EN $end
$var reg 1 e iIOCS16 $end
$var reg 1 - i_undedicedIsaCycle $end
$var reg 3 f isacyclessincebale [2:0] $end
$var reg 3 g isahighctr [2:0] $end
$var reg 3 h isalowwaitctr [2:0] $end
$var reg 20 i lastAdsRequest [19:0] $end
$var reg 1 j mio $end
$var reg 1 k needToDecode $end
$var reg 1 l r1_Pulse $end
$var reg 1 m r2_Pulse $end
$var reg 1 n r3_Pulse $end
$var reg 4 o stupidCtr [3:0] $end
$var reg 1 p waitAlreadySet $end
$var reg 1 q wr $end
$upscope $end
$scope module testramthingy $end
$var wire 1 D HSYNC $end
$var wire 1 R RESET $end
$var wire 1 M VSYNC $end
$var wire 1 r bus_free $end
$var wire 1 > chipEnable $end
$var wire 1 N clock $end
$var wire 16 s dataInputBus [15:0] $end
$var wire 1 ( empty $end
$var wire 1 O evenOrOdd $end
$var wire 1 . fifoRead $end
$var wire 1 , fifoWrite $end
$var wire 1 1 frameEnd $end
$var wire 20 t maxVramAddress [19:0] $end
$var wire 20 u nextVramAddress [19:0] $end
$var wire 1 Q pixelClock $end
$var wire 1 9 readSignal $end
$var wire 1 + valid $end
$var wire 1 S vblank $end
$var wire 1 0 full $end
$var wire 1 2 debugalreadyDidHsyncReset $end
$var wire 16 v b2dout [15:0] $end
$var wire 16 w b1dout [15:0] $end
$var wire 5 x Ri [4:0] $end
$var wire 6 y Gi [5:0] $end
$var wire 5 z Bi [4:0] $end
$var reg 1 { alreadySubtracted $end
$var reg 1 | bugFix $end
$var reg 3 } delayBeforeWriteAgain [2:0] $end
$var reg 1 ~ fastEvenOrOdd $end
$var reg 1 !" fastFrameEnd $end
$var reg 1 "" fastVblank $end
$var reg 20 #" iNextVramAddress [19:0] $end
$var reg 1 $" ichipEnable $end
$var reg 1 %" ififoRead $end
$var reg 1 &" ififoWrite $end
$var reg 1 '" iframeEnd $end
$var reg 16 (" ipixelOutput [15:0] $end
$var reg 1 )" ireadSignal $end
$var reg 1 *" r1_Pulse $end
$var reg 1 +" r2_Pulse $end
$var reg 1 ," r3_Pulse $end
$var reg 10 -" raddr [9:0] $end
$var reg 10 ." waddr [9:0] $end
$scope module b1 $end
$var wire 16 /" din [15:0] $end
$var wire 10 0" raddr [9:0] $end
$var wire 1 Q rclk $end
$var wire 1 %" read_en $end
$var wire 10 1" waddr [9:0] $end
$var wire 1 N wclk $end
$var wire 1 2" write_en $end
$var parameter 32 3" addr_width $end
$var parameter 32 4" data_width $end
$var reg 16 5" dout [15:0] $end
$upscope $end
$scope module b2 $end
$var wire 16 6" din [15:0] $end
$var wire 10 7" raddr [9:0] $end
$var wire 1 Q rclk $end
$var wire 1 %" read_en $end
$var wire 10 8" waddr [9:0] $end
$var wire 1 N wclk $end
$var wire 1 9" write_en $end
$var parameter 32 :" addr_width $end
$var parameter 32 ;" data_width $end
$var reg 16 <" dout [15:0] $end
$upscope $end
$upscope $end
$upscope $end
$enddefinitions $end
$comment Show the parameter values. $end
$dumpall
b10000 ;"
b1010 :"
b10000 4"
b1010 3"
b1000 B
$end
#0
$dumpvars
bx <"
x9"
bx 8"
bx 7"
bx 6"
bx 5"
x2"
bx 1"
bx 0"
bx /"
bx ."
bx -"
x,"
x+"
x*"
x)"
bx ("
x'"
x&"
x%"
x$"
bx #"
x""
x!"
x~
bx }
x|
x{
bx z
bx y
bx x
bx w
bx v
bx u
b110100 t
bx s
xr
xq
xp
bx o
xn
xm
xl
xk
xj
bx i
bx h
bx g
bx f
xe
xd
xc
bx b
xa
x`
x_
x^
x]
x\
x[
xZ
xY
xX
bx W
1V
bx U
bx T
xS
xR
xQ
bx P
xO
xN
xM
xL
xK
xJ
xI
xH
xG
xF
xE
xD
xC
xA
x@
bx ?
x>
x=
x<
bx ;
x:
x9
bx 8
x7
x6
x5
x4
x3
x2
x1
x0
bx /
x.
x-
x,
z+
b110100 *
x)
z(
0'
1&
z%
1$
1#
x"
x!
$end
#10
02
b0 8
b0 x
b0 ;
b0 y
b0 ?
b0 z
0.
0%"
b0 -"
b0 0"
b0 7"
b0 ("
09"
1Q
0O
1M
1D
0S
#20
0Q
#24
b0 T
b0 s
b0 /"
b0 6"
#25
1R
#30
1)
1Q
b11111111 P
b11111111 U
1:
1J
0A
0C
1L
1K
1I
1H
1F
1E
1G
#40
0Q
#49
0N
0R
#50
01
0'"
1Q
#52
12"
0"
00
b0 ."
b0 1"
b0 8"
1,
1&"
1>
1$"
19
1)"
b0 /
b0 u
b0 #"
b0 }
1{
0|
1*"
14
1[
15
1Z
16
1Y
17
1X
1]
1\
0c
1l
b0 f
b10 b
b0 i
b11 h
bx g
b11 W
1p
1e
b0 o
1!
1@
0=
03
0k
1N
#56
0N
#60
1m
0l
b11 g
b11 W
1+"
0*"
1N
0Q
0G
#64
0N
#68
1,"
0+"
1n
0m
b11 W
1R
1N
b1010010001010101 T
b1010010001010101 s
b1010010001010101 /"
b1010010001010101 6"
#70
12
bx 8
bx x
bx ;
bx y
bx ?
bx z
b1 -"
b1 0"
b1 7"
1.
1%"
bx ("
1S
1Q
#72
0N
#76
02"
b1 f
0n
1|
b10 }
0,
0&"
0,"
1*"
1N
b1111111111111111 T
b1111111111111111 s
b1111111111111111 /"
b1111111111111111 6"
#80
0N
0Q
#84
1+"
0*"
b10 }
1N
b1101100100000011 T
b1101100100000011 s
b1101100100000011 /"
b1101100100000011 6"
#88
0N
#90
02
b10 -"
b10 0"
b10 7"
1Q
1G
#92
b10 g
1l
0!"
1""
0~
1,"
0+"
1*"
b10 }
1N
b1010110110011 T
b1010110110011 s
b1010110110011 /"
b1010110110011 6"
#96
0N
#100
0,"
1+"
0*"
b10 }
b1 g
1m
1N
b11000000111001 T
b11000000111001 s
b11000000111001 /"
b11000000111001 6"
0Q
#104
0N
#108
b10 f
b0 g
1n
1,"
0+"
b10 }
1N
b1000011100010 T
b1000011100010 s
b1000011100010 /"
b1000011100010 6"
#110
12
b11 -"
b11 0"
b11 7"
1Q
#112
0N
#116
0<
0,"
1*"
b10 }
0j
1q
1d
1_
1^
1a
1`
1N
b10001010111000 T
b10001010111000 s
b10001010111000 /"
b10001010111000 6"
#120
0N
0Q
0G
#124
0r
0-
b11 g
0l
1+"
0*"
b10 }
1N
b1000100111110 T
b1000100111110 s
b1000100111110 /"
b1000100111110 6"
#128
0N
#130
02
b100 -"
b100 0"
b100 7"
1Q
#132
0|
1,"
0+"
1*"
b1 }
0m
1N
b1010110110011 T
b1010110110011 s
b1010110110011 /"
b1010110110011 6"
#136
0N
#140
12"
b11 f
0n
1,
1&"
0>
0$"
09
0)"
0,"
1+"
0*"
b0 }
1N
b1100111011110 T
b1100111011110 s
b1100111011110 /"
b1100111011110 6"
0Q
#144
0N
#148
0{
b1 ."
b1 1"
b1 8"
b10 /
b10 u
b10 #"
1,"
0+"
1N
b100001101010000 T
b100001101010000 s
b100001101010000 /"
b100001101010000 6"
#150
12
b101 -"
b101 0"
b101 7"
1Q
1G
#152
0N
#156
b10 g
1l
b10 ."
b10 1"
b10 8"
b100 /
b100 u
b100 #"
0,"
1*"
1N
b1110000100 T
b1110000100 s
b1110000100 /"
b1110000100 6"
#160
0N
0Q
#164
b11 ."
b11 1"
b11 8"
b110 /
b110 u
b110 #"
1+"
0*"
b1 g
1m
1N
b110100100 T
b110100100 s
b110100100 /"
b110100100 6"
#168
0N
#170
02
b110 -"
b110 0"
b110 7"
1Q
#172
b100 f
b0 g
1n
b100 ."
b100 1"
b100 8"
b1000 /
b1000 u
b1000 #"
1,"
0+"
1*"
1N
b1000101 T
b1000101 s
b1000101 /"
b1000101 6"
#176
0N
#180
b101 ."
b101 1"
b101 8"
b1010 /
b1010 u
b1010 #"
0,"
1+"
0*"
b0 f
b1 b
0-
b11 g
1c
0l
1N
b1111110111101000 T
b1111110111101000 s
b1111110111101000 /"
b1111110111101000 6"
0Q
b10100100000 P
b10100100000 U
0:
0J
1A
1C
0G
#184
0N
#188
1r
b0 b
1-
0m
b110 ."
b110 1"
b110 8"
b1100 /
b1100 u
b1100 #"
1,"
0+"
1N
#190
12
b111 -"
b111 0"
b111 7"
1Q
#192
0N
#196
02"
b1010 /
b1010 u
b1010 #"
b101 ."
b101 1"
b101 8"
1|
b10 }
0,
0&"
1>
1$"
19
1)"
0,"
1*"
b10100100000 i
0!
0@
0n
1N
#200
0N
0Q
#204
1+"
0*"
b10 }
1N
#208
0N
#210
02
b1000 -"
b1000 0"
b1000 7"
1Q
0A
0C
1G
#212
1,"
0+"
1*"
b10 }
1!
1@
b10 b
b10 g
0c
1l
1N
#216
0N
#220
b1 g
1m
0,"
1+"
0*"
b10 }
1N
0Q
#224
0N
#228
1,"
0+"
b10 }
b1 f
b0 g
1n
1N
#230
12
b1001 -"
b1001 0"
b1001 7"
1Q
#232
0N
#236
0d
0,"
1*"
b10 }
1N
#240
0N
0Q
0E
0G
#244
1<
1+"
0*"
b10 }
b11 g
0\
0l
1N
#248
0N
#250
02
b1010 -"
b1010 0"
b1010 7"
1Q
#252
0m
1,"
0+"
1*"
b10 }
1N
#256
0N
#260
0,"
1+"
0*"
b10 }
b10 f
0n
1N
0Q
#264
0N
#268
0r
0-
1,"
0+"
b10 }
1N
#270
12
b1011 -"
b1011 0"
b1011 7"
1Q
1G
#272
0N
#276
0|
0,"
1*"
b1 }
b10 g
1l
1N
#280
0N
0Q
#284
12"
b1 g
1m
1,
1&"
0>
0$"
09
0)"
1+"
0*"
b0 }
1N
#288
0N
#290
02
b1100 -"
b1100 0"
b1100 7"
1Q
#292
b110 ."
b110 1"
b110 8"
b1100 /
b1100 u
b1100 #"
1,"
0+"
1*"
b11 f
b0 g
1n
1N
#296
0N
#300
b11 g
0l
b111 ."
b111 1"
b111 8"
b1110 /
b1110 u
b1110 #"
0,"
1+"
0*"
1N
0Q
0G
#304
0N
#308
b1000 ."
b1000 1"
b1000 8"
b10000 /
b10000 u
b10000 #"
1,"
0+"
0m
1N
#310
12
b1101 -"
b1101 0"
b1101 7"
1Q
#312
0N
#316
b100 f
0n
b1001 ."
b1001 1"
b1001 8"
b10010 /
b10010 u
b10010 #"
0,"
1*"
1N
#320
0N
0Q
#324
b1010 ."
b1010 1"
b1010 8"
b10100 /
b10100 u
b10100 #"
1+"
0*"
1N
#328
0N
#330
02
b1110 -"
b1110 0"
b1110 7"
1Q
1E
1G
#332
0<
b10 g
1\
1l
b1011 ."
b1011 1"
b1011 8"
b10110 /
b10110 u
b10110 #"
1,"
0+"
1*"
1N
#336
0N
#340
b1100 ."
b1100 1"
b1100 8"
b11000 /
b11000 u
b11000 #"
0,"
1+"
0*"
b1 g
1m
1N
0Q
#344
0N
#348
b101 f
b0 g
1n
b1101 ."
b1101 1"
b1101 8"
b11010 /
b11010 u
b11010 #"
1,"
0+"
1N
#350
12
b1111 -"
b1111 0"
b1111 7"
1Q
#352
0N
#356
b1110 ."
b1110 1"
b1110 8"
b11100 /
b11100 u
b11100 #"
0,"
1*"
1N
#360
0N
0Q
0G
#364
b11 g
0l
b1111 ."
b1111 1"
b1111 8"
b11110 /
b11110 u
b11110 #"
1+"
0*"
1N
#368
0N
#370
02
b10000 -"
b10000 0"
b10000 7"
1Q
#372
b10000 ."
b10000 1"
b10000 8"
b100000 /
b100000 u
b100000 #"
1,"
0+"
1*"
0m
1N
#376
0N
#380
b110 f
0n
b10001 ."
b10001 1"
b10001 8"
b100010 /
b100010 u
b100010 #"
0,"
1+"
0*"
1N
0Q
#384
0N
#388
b10010 ."
b10010 1"
b10010 8"
b100100 /
b100100 u
b100100 #"
1,"
0+"
1N
#390
b0 8
b0 x
b0 ;
b0 y
b0 ?
b0 z
0.
0%"
b0 -"
b0 0"
b0 7"
b0 ("
b1111110111101000 w
b1111110111101000 5"
0S
1Q
1G
#392
0N
#396
b10 g
1l
b10011 ."
b10011 1"
b10011 8"
b100110 /
b100110 u
b100110 #"
0,"
1*"
1N
#400
0N
0Q
#404
b10100 ."
b10100 1"
b10100 8"
b101000 /
b101000 u
b101000 #"
1+"
0*"
b1 g
1m
1N
#408
0N
#410
1Q
#412
b0 g
1n
b10101 ."
b10101 1"
b10101 8"
b101010 /
b101010 u
b101010 #"
0""
1,"
0+"
1*"
1N
#416
0N
#420
b101100 /
b101100 u
b101100 #"
1{
b10 }
b0 ."
b0 1"
b0 8"
1>
1$"
19
1)"
0,"
1+"
0*"
b11 g
0l
1N
0Q
0G
#424
0N
#428
0m
1,"
0+"
b10 }
1N
#430
0D
1Q
#432
0N
#436
0,"
1*"
b10 }
0n
1N
#440
0N
0Q
#444
1+"
0*"
b10 }
1N
#448
0N
#450
1Q
1G
#452
1,"
0+"
1*"
b10 }
b10 g
1l
1N
#456
0N
#460
b1 g
1m
0,"
1+"
0*"
b10 }
02"
19"
1N
1D
1O
0Q
#464
0N
#468
1~
1,"
0+"
b10 }
b0 g
1n
1N
#470
12
b11111 8
b11111 x
b101111 ;
b101111 y
b1000 ?
b1000 z
b1 -"
b1 0"
b1 7"
1.
1%"
b1111110111101000 ("
1S
1Q
#472
0N
#476
0,"
1*"
b10 }
1N
#480
0N
0Q
0G
#484
1+"
0*"
b10 }
b11 g
0l
1N
#488
0N
#490
02
b1110000100 w
b1110000100 5"
b10 -"
b10 0"
b10 7"
1Q
#492
0m
1""
1,"
0+"
1*"
b10 }
1N
#496
0N
#500
09"
0,
0&"
0,"
1+"
0*"
b1 }
0n
1N
0Q
#504
0N
#508
19"
1,
1&"
0>
0$"
09
0)"
1,"
0+"
b0 }
1N
#510
12
b0 8
b0 x
b11100 ;
b11100 y
b100 ?
b100 z
b11 -"
b11 0"
b11 7"
b1110000100 ("
b110100100 w
b110100100 5"
1Q
1G
#512
0N
#516
0{
b1 ."
b1 1"
b1 8"
b101110 /
b101110 u
b101110 #"
0,"
1*"
b10 g
1l
1N
#520
0N
0Q
#524
b1 g
1m
b10 ."
b10 1"
b10 8"
b110000 /
b110000 u
b110000 #"
1+"
0*"
1N
#528
0N
#530
02
b1101 ;
b1101 y
b1000101 w
b1000101 5"
b100 -"
b100 0"
b100 7"
b110100100 ("
1Q
#532
b11 ."
b11 1"
b11 8"
b110010 /
b110010 u
b110010 #"
1,"
0+"
1*"
b0 g
1n
1N
#536
0N
#540
b11 g
0l
b100 ."
b100 1"
b100 8"
b110100 /
b110100 u
b110100 #"
0,"
1+"
0*"
1N
0Q
0G
#544
0N
#548
b101 ."
b101 1"
b101 8"
b110110 /
b110110 u
b110110 #"
1,"
0+"
0m
1N
#550
12
b10 ;
b10 y
b101 ?
b101 z
b101 -"
b101 0"
b101 7"
b1000101 ("
b1111110111101000 v
b1111110111101000 <"
b1111110111101000 w
b1111110111101000 5"
1Q
#552
0N
#556
0n
b110 ."
b110 1"
b110 8"
b111000 /
b111000 u
b111000 #"
0,"
1*"
1N
#560
0N
0Q
#564
b111 ."
b111 1"
b111 8"
b111010 /
b111010 u
b111010 #"
1+"
0*"
1N
#568
0N
#570
02
b11111 8
b11111 x
b101111 ;
b101111 y
b1000 ?
b1000 z
b110 -"
b110 0"
b110 7"
b1111110111101000 ("
1Q
1G
#572
b10 g
1l
b1000 ."
b1000 1"
b1000 8"
b111100 /
b111100 u
b111100 #"
1,"
0+"
1*"
1N
#576
0N
#580
b1001 ."
b1001 1"
b1001 8"
b111110 /
b111110 u
b111110 #"
0,"
1+"
0*"
b1 g
1m
1N
0Q
#584
0N
#588
b0 g
1n
b1010 ."
b1010 1"
b1010 8"
b1000000 /
b1000000 u
b1000000 #"
1,"
0+"
1N
#590
12
b111 -"
b111 0"
b111 7"
1Q
#592
0N
#596
b1011 ."
b1011 1"
b1011 8"
b1000010 /
b1000010 u
b1000010 #"
0,"
1*"
1N
#600
0N
0Q
0G
#604
b11 g
0l
b1100 ."
b1100 1"
b1100 8"
b1000100 /
b1000100 u
b1000100 #"
1+"
0*"
1N
#608
0N
#610
02
b1000 -"
b1000 0"
b1000 7"
1Q
#612
b1101 ."
b1101 1"
b1101 8"
b1000110 /
b1000110 u
b1000110 #"
1,"
0+"
1*"
0m
1N
#616
0N
#620
0n
b1110 ."
b1110 1"
b1110 8"
b1001000 /
b1001000 u
b1001000 #"
0,"
1+"
0*"
1N
0Q
#624
0N
#628
b1111 ."
b1111 1"
b1111 8"
b1001010 /
b1001010 u
b1001010 #"
1,"
0+"
1N
#630
12
b1001 -"
b1001 0"
b1001 7"
1Q
1G
#632
0N
#636
b10 g
1l
b10000 ."
b10000 1"
b10000 8"
b1001100 /
b1001100 u
b1001100 #"
0,"
1*"
1N
#640
0N
0Q
#644
b10001 ."
b10001 1"
b10001 8"
b1001110 /
b1001110 u
b1001110 #"
1+"
0*"
b1 g
1m
1N
#648
0N
#650
02
b1010 -"
b1010 0"
b1010 7"
1Q
#652
b0 g
1n
b10010 ."
b10010 1"
b10010 8"
b1010000 /
b1010000 u
b1010000 #"
1,"
0+"
1*"
1N
#656
0N
#660
b10011 ."
b10011 1"
b10011 8"
b1010010 /
b1010010 u
b1010010 #"
0,"
1+"
0*"
b11 g
0l
1N
0Q
0G
#664
0N
#668
0m
b10100 ."
b10100 1"
b10100 8"
b1010100 /
b1010100 u
b1010100 #"
1,"
0+"
1N
#670
12
b1011 -"
b1011 0"
b1011 7"
1Q
#672
0N
#676
b10101 ."
b10101 1"
b10101 8"
b1010110 /
b1010110 u
b1010110 #"
0,"
1*"
0n
1N
#680
0N
0Q
#684
b10110 ."
b10110 1"
b10110 8"
b1011000 /
b1011000 u
b1011000 #"
1+"
0*"
1N
#688
0N
#690
02
b0 8
b0 x
b0 ;
b0 y
b0 ?
b0 z
0.
0%"
b0 -"
b0 0"
b0 7"
b0 ("
0S
1Q
1G
#692
b10111 ."
b10111 1"
b10111 8"
b1011010 /
b1011010 u
b1011010 #"
0""
1,"
0+"
1*"
b10 g
1l
1N
#696
0N
#700
b1 g
1m
b1011100 /
b1011100 u
b1011100 #"
1{
b10 }
b0 ."
b0 1"
b0 8"
1>
1$"
19
1)"
0,"
1+"
0*"
1N
0Q
#704
0N
#708
1,"
0+"
b10 }
b0 g
1n
1N
#710
0D
1Q
#712
0N
#716
0,"
1*"
b10 }
1N
#720
0N
0Q
1A
1C
0G
#724
1+"
0*"
b10 }
b0 f
b1 b
0-
b11 g
1c
0l
1N
#728
0N
#730
1D
1Q
#732
1r
b0 b
1-
0m
1,"
0+"
1*"
b10 }
1N
#736
0N
#740
0,"
1+"
0*"
b10 }
0!
0@
0n
12"
09"
1N
0O
0Q
#744
0N
#748
0~
1,"
0+"
b10 }
1N
#750
12
b11111 8
b11111 x
b101111 ;
b101111 y
b1000 ?
b1000 z
b1 -"
b1 0"
b1 7"
1.
1%"
b1111110111101000 ("
1S
1Q
0F
0A
0C
1G
#752
0N
#756
0,"
1*"
b10 }
1!
1@
b10 b
b10 g
0]
0c
1l
1N
#760
0N
0Q
#764
b1 g
1m
1+"
0*"
b10 }
1N
#768
0N
#770
02
b1110000100 w
b1110000100 5"
b10 -"
b10 0"
b10 7"
1Q
#772
1""
1,"
0+"
1*"
b10 }
b1 f
b0 g
1n
1N
#776
0N
#780
02"
b11 g
0l
1|
0,
0&"
0,"
1+"
0*"
b10 }
1N
0Q
0G
#784
0N
#788
1,"
0+"
b10 }
0m
1N
#790
12
b11 -"
b11 0"
b11 7"
b110100100 w
b110100100 5"
1Q
#792
0N
#796
b10 f
0n
0,"
1*"
b10 }
1N
#800
0N
0Q
#804
0r
1+"
0*"
b10 }
0-
1N
#808
0N
#810
02
b1000101 w
b1000101 5"
b100 -"
b100 0"
b100 7"
1Q
1G
#812
b10 g
1l
0|
1,"
0+"
1*"
b1 }
1N
#816
0N
#820
12"
1,
1&"
0>
0$"
09
0)"
0,"
1+"
0*"
b0 }
b1 g
1m
1N
0Q
#824
0N
#828
b11 f
b0 g
1n
0{
b1 ."
b1 1"
b1 8"
b1011110 /
b1011110 u
b1011110 #"
1,"
0+"
1N
#830
12
b101 -"
b101 0"
b101 7"
b1111110111101000 w
b1111110111101000 5"
1Q
#832
0N
#836
b10 ."
b10 1"
b10 8"
b1100000 /
b1100000 u
b1100000 #"
0,"
1*"
0q
1N
#840
0N
0Q
0G
#844
b11 g
0l
b11 ."
b11 1"
b11 8"
b1100010 /
b1100010 u
b1100010 #"
1+"
0*"
1N
#848
0N
#850
02
b110 -"
b110 0"
b110 7"
1Q
#852
b100 ."
b100 1"
b100 8"
b1100100 /
b1100100 u
b1100100 #"
1,"
0+"
1*"
0m
1N
#856
0N
#860
b100 f
0n
b101 ."
b101 1"
b101 8"
b1100110 /
b1100110 u
b1100110 #"
0,"
1+"
0*"
1N
0Q
#864
0N
#868
b110 ."
b110 1"
b110 8"
b1101000 /
b1101000 u
b1101000 #"
1,"
0+"
1N
#870
12
b111 -"
b111 0"
b111 7"
1Q
1F
1G
#872
0N
#876
b10 g
1]
1l
b111 ."
b111 1"
b111 8"
b1101010 /
b1101010 u
b1101010 #"
0,"
1*"
1N
#880
0N
0Q
#884
b1000 ."
b1000 1"
b1000 8"
b1101100 /
b1101100 u
b1101100 #"
1+"
0*"
b1 g
1m
1N
#888
0N
#890
02
b1000 -"
b1000 0"
b1000 7"
1Q
#892
b101 f
b0 g
1n
b1001 ."
b1001 1"
b1001 8"
b1101110 /
b1101110 u
b1101110 #"
1,"
0+"
1*"
1N
#896
0N
#900
b1010 ."
b1010 1"
b1010 8"
b1110000 /
b1110000 u
b1110000 #"
0,"
1+"
0*"
b11 g
0l
1N
0Q
0G
#904
0N
#908
0m
b1011 ."
b1011 1"
b1011 8"
b1110010 /
b1110010 u
b1110010 #"
1,"
0+"
1N
#910
12
b1001 -"
b1001 0"
b1001 7"
1Q
#912
0N
#916
b1100 ."
b1100 1"
b1100 8"
b1110100 /
b1110100 u
b1110100 #"
0,"
1*"
b110 f
0n
1N
#920
0N
0Q
#924
b1101 ."
b1101 1"
b1101 8"
b1110110 /
b1110110 u
b1110110 #"
1+"
0*"
1N
#928
0N
#930
02
b1010 -"
b1010 0"
b1010 7"
1Q
1G
#932
b1110 ."
b1110 1"
b1110 8"
b1111000 /
b1111000 u
b1111000 #"
1,"
0+"
1*"
b10 g
1l
1N
#936
0N
#940
b1 g
1m
b1111 ."
b1111 1"
b1111 8"
b1111010 /
b1111010 u
b1111010 #"
0,"
1+"
0*"
1N
0Q
#944
0N
#948
b10000 ."
b10000 1"
b10000 8"
b1111100 /
b1111100 u
b1111100 #"
1,"
0+"
b0 g
1n
1N
#950
12
b1011 -"
b1011 0"
b1011 7"
1Q
#952
0N
#956
1q
b10001 ."
b10001 1"
b10001 8"
b1111110 /
b1111110 u
b1111110 #"
0,"
1*"
1N
#960
0N
0Q
0G
#964
b10010 ."
b10010 1"
b10010 8"
b10000000 /
b10000000 u
b10000000 #"
1+"
0*"
b11 g
0l
1N
#968
0N
#970
02
b1100 -"
b1100 0"
b1100 7"
1Q
#972
0m
b10011 ."
b10011 1"
b10011 8"
b10000010 /
b10000010 u
b10000010 #"
1,"
0+"
1*"
1N
#976
0N
#980
b10100 ."
b10100 1"
b10100 8"
b10000100 /
b10000100 u
b10000100 #"
0,"
1+"
0*"
0n
1N
0Q
#984
0N
#988
b10101 ."
b10101 1"
b10101 8"
b10000110 /
b10000110 u
b10000110 #"
1,"
0+"
1N
#990
12
b1101 -"
b1101 0"
b1101 7"
1Q
1G
#992
0N
#996
b10110 ."
b10110 1"
b10110 8"
b10001000 /
b10001000 u
b10001000 #"
0,"
1*"
b10 g
1l
1N
#1000
0N
0Q
#1004
b1 g
1m
b10111 ."
b10111 1"
b10111 8"
b10001010 /
b10001010 u
b10001010 #"
1+"
0*"
1N
#1008
0N
#1010
02
b1110 -"
b1110 0"
b1110 7"
1Q
#1012
b11000 ."
b11000 1"
b11000 8"
b10001100 /
b10001100 u
b10001100 #"
1,"
0+"
1*"
b0 g
1n
1N
#1016
0N
#1020
b11 g
0l
b11001 ."
b11001 1"
b11001 8"
b10001110 /
b10001110 u
b10001110 #"
0,"
1+"
0*"
1N
0Q
0G
#1024
0N
#1028
b11010 ."
b11010 1"
b11010 8"
b10010000 /
b10010000 u
b10010000 #"
1,"
0+"
0m
1N
#1030
12
b1111 -"
b1111 0"
b1111 7"
1Q
#1032
0N
#1036
0n
b11011 ."
b11011 1"
b11011 8"
b10010010 /
b10010010 u
b10010010 #"
0,"
1*"
1N
#1040
0N
0Q
#1044
b11100 ."
b11100 1"
b11100 8"
b10010100 /
b10010100 u
b10010100 #"
1+"
0*"
1N
#1048
0N
#1050
02
b10000 -"
b10000 0"
b10000 7"
1Q
1G
#1052
b10 g
1l
b11101 ."
b11101 1"
b11101 8"
b10010110 /
b10010110 u
b10010110 #"
1,"
0+"
1*"
1N
#1056
0N
#1060
b11110 ."
b11110 1"
b11110 8"
b10011000 /
b10011000 u
b10011000 #"
0,"
1+"
0*"
b1 g
1m
1N
0Q
#1064
0N
#1068
b0 g
1n
b11111 ."
b11111 1"
b11111 8"
b10011010 /
b10011010 u
b10011010 #"
1,"
0+"
1N
#1070
12
b10001 -"
b10001 0"
b10001 7"
1Q
#1072
0N
#1076
b100000 ."
b100000 1"
b100000 8"
b10011100 /
b10011100 u
b10011100 #"
0,"
1*"
1N
#1080
0N
0Q
0G
#1084
b11 g
0l
b100001 ."
b100001 1"
b100001 8"
b10011110 /
b10011110 u
b10011110 #"
1+"
0*"
1N
#1088
0N
#1090
02
b10010 -"
b10010 0"
b10010 7"
1Q
#1092
b100010 ."
b100010 1"
b100010 8"
b10100000 /
b10100000 u
b10100000 #"
1,"
0+"
1*"
0m
1N
#1096
0N
#1100
0n
b100011 ."
b100011 1"
b100011 8"
b10100010 /
b10100010 u
b10100010 #"
0,"
1+"
0*"
1N
0Q
#1104
0N
#1108
b100100 ."
b100100 1"
b100100 8"
b10100100 /
b10100100 u
b10100100 #"
1,"
0+"
1N
#1110
12
b10011 -"
b10011 0"
b10011 7"
1Q
1G
#1112
0N
#1116
b10 g
1l
b100101 ."
b100101 1"
b100101 8"
b10100110 /
b10100110 u
b10100110 #"
0,"
1*"
1N
#1120
0N
0Q
#1124
b100110 ."
b100110 1"
b100110 8"
b10101000 /
b10101000 u
b10101000 #"
1+"
0*"
b1 g
1m
1N
#1128
0N
