tb_.vcd
$date
	Sun Mar  2 19:45:07 2025
$end
$version
	Icarus Verilog
$end
$timescale
	1s
$end
$scope module tb $end
$var wire 1 ! ADDRESS_OUTPUT_ENABLE $end
$var wire 1 " DATA_OUTPUT_ENABLE $end
$var wire 1 # IOERR $end
$var wire 1 $ IO_RDY $end
$var wire 1 % ISADONE $end
$var wire 1 & MEMCS16 $end
$var wire 1 ' NOWS $end
$var wire 1 ( empty $end
$var wire 1 ) isa_ctrl_out_en $end
$var wire 20 * maxVramAddress [19:0] $end
$var wire 1 + valid $end
$var wire 1 , write_en $end
$var wire 1 - undecidedIsaCycle $end
$var wire 1 . read_en $end
$var wire 20 / genVramAddress [19:0] $end
$var wire 1 0 full $end
$var wire 1 1 frameEnd $end
$var wire 1 2 alreadyDidHsyncReset $end
$var wire 1 3 actualBusCycle $end
$var wire 1 4 TE3 $end
$var wire 1 5 TE2 $end
$var wire 1 6 TE1 $end
$var wire 1 7 TE0 $end
$var wire 5 8 Ri [4:0] $end
$var wire 1 9 RD $end
$var wire 1 : IOCS16 $end
$var wire 6 ; Gi [5:0] $end
$var wire 1 < FPGA_WR $end
$var wire 1 = FPGA_IO_EN $end
$var wire 1 > CE $end
$var wire 5 ? Bi [4:0] $end
$var wire 1 @ ADS_OE $end
$var wire 1 A ADS_LATCH $end
$var parameter 32 B CLK_PERIOD $end
$var reg 1 C BALE $end
$var reg 1 D HSYNC $end
$var reg 1 E IOR $end
$var reg 1 F IOW $end
$var reg 1 G ISA_CLK $end
$var reg 1 H MEMR $end
$var reg 1 I MEMW $end
$var reg 1 J SBHE $end
$var reg 1 K SMEMR $end
$var reg 1 L SMEMW $end
$var reg 1 M VSYNC $end
$var reg 1 N clk $end
$var reg 1 O evenOrOdd $end
$var reg 20 P isaAddressBus [19:0] $end
$var reg 1 Q pixelClock $end
$var reg 1 R rst_n $end
$var reg 1 S vblank $end
$var reg 16 T vramDataBus [15:0] $end
$scope module isathing $end
$var wire 1 A ADS_LATCH $end
$var wire 1 C BALE $end
$var wire 1 N FPGACLK $end
$var wire 1 < FPGA_WR $end
$var wire 1 : IOCS16 $end
$var wire 1 # IOERR $end
$var wire 1 E IOR $end
$var wire 1 F IOW $end
$var wire 1 $ IO_RDY $end
$var wire 1 G ISA_CLK $end
$var wire 1 & MEMCS16 $end
$var wire 1 H MEMR $end
$var wire 1 I MEMW $end
$var wire 1 ' NOWS $end
$var wire 1 R RESET $end
$var wire 1 J SBHE $end
$var wire 1 K SMEMR $end
$var wire 1 L SMEMW $end
$var wire 1 7 TE0 $end
$var wire 1 6 TE1 $end
$var wire 1 5 TE2 $end
$var wire 1 4 TE3 $end
$var wire 1 3 actual_bus_cycle $end
$var wire 20 U addressBus [19:0] $end
$var wire 1 % done $end
$var wire 1 V memoryCyclesEnabled $end
$var wire 1 - undecidedIsaCycle $end
$var wire 1 = FPGA_IO_EN $end
$var wire 1 @ ADS_OE $end
$var reg 1 W BALE1_Pulse $end
$var reg 1 X BALE2_Pulse $end
$var reg 1 Y BALE3_Pulse $end
$var reg 3 Z FPGA_IO_WAITCTR [2:0] $end
$var reg 1 [ IOR1_Pulse $end
$var reg 1 \ IOR2_Pulse $end
$var reg 1 ] IOR3_Pulse $end
$var reg 1 ^ IOW1_Pulse $end
$var reg 1 _ IOW2_Pulse $end
$var reg 1 ` IOW3_Pulse $end
$var reg 1 a ISACLKSTATE $end
$var reg 1 b MEMR1_Pulse $end
$var reg 1 c MEMR2_Pulse $end
$var reg 1 d MEMR3_Pulse $end
$var reg 1 e MEMW1_Pulse $end
$var reg 1 f MEMW2_Pulse $end
$var reg 1 g MEMW3_Pulse $end
$var reg 1 h SMEMR1_Pulse $end
$var reg 1 i SMEMR2_Pulse $end
$var reg 1 j SMEMR3_Pulse $end
$var reg 1 k SMEMW1_Pulse $end
$var reg 1 l SMEMW2_Pulse $end
$var reg 1 m SMEMW3_Pulse $end
$var reg 1 n TE0i $end
$var reg 1 o TE1i $end
$var reg 1 p TE2i $end
$var reg 1 q TE3i $end
$var reg 1 r absIOR $end
$var reg 1 s absIOW $end
$var reg 1 t absMEMR $end
$var reg 1 u absMEMW $end
$var reg 1 v absSMEMR $end
$var reg 1 w absSMEMW $end
$var reg 1 3 actualBusCycle $end
$var reg 2 x baleassertctr [1:0] $end
$var reg 1 y fastBALE $end
$var reg 1 z fastSBHE $end
$var reg 1 @ iADS_OE $end
$var reg 1 = iFPGA_IO_EN $end
$var reg 1 { iIOCS16 $end
$var reg 1 - i_undedicedIsaCycle $end
$var reg 3 | isacyclessincebale [2:0] $end
$var reg 3 } isahighctr [2:0] $end
$var reg 3 ~ isalowwaitctr [2:0] $end
$var reg 20 !" lastAdsRequest [19:0] $end
$var reg 1 "" mio $end
$var reg 1 #" needToDecode $end
$var reg 1 $" r1_Pulse $end
$var reg 1 %" r2_Pulse $end
$var reg 1 &" r3_Pulse $end
$var reg 4 '" stupidCtr [3:0] $end
$var reg 1 (" waitAlreadySet $end
$var reg 1 )" wr $end
$upscope $end
$scope module testramthingy $end
$var wire 1 D HSYNC $end
$var wire 1 R RESET $end
$var wire 1 M VSYNC $end
$var wire 1 *" bus_free $end
$var wire 1 > chipEnable $end
$var wire 1 N clock $end
$var wire 16 +" dataInputBus [15:0] $end
$var wire 1 ( empty $end
$var wire 1 O evenOrOdd $end
$var wire 1 . fifoRead $end
$var wire 1 , fifoWrite $end
$var wire 1 1 frameEnd $end
$var wire 20 ," maxVramAddress [19:0] $end
$var wire 20 -" nextVramAddress [19:0] $end
$var wire 1 Q pixelClock $end
$var wire 1 9 readSignal $end
$var wire 1 + valid $end
$var wire 1 S vblank $end
$var wire 1 S vblank_pixelDomian $end
$var wire 1 0 full $end
$var wire 1 2 debugalreadyDidHsyncReset $end
$var wire 16 ." b2dout [15:0] $end
$var wire 16 /" b1dout [15:0] $end
$var wire 5 0" Ri [4:0] $end
$var wire 6 1" Gi [5:0] $end
$var wire 5 2" Bi [4:0] $end
$var reg 1 3" alreadySubtracted $end
$var reg 1 4" bugFix $end
$var reg 3 5" delayBeforeWriteAgain [2:0] $end
$var reg 1 6" fastEvenOrOdd $end
$var reg 1 7" fastFrameEnd $end
$var reg 1 8" fastVblank $end
$var reg 20 9" iNextVramAddress [19:0] $end
$var reg 1 :" ichipEnable $end
$var reg 1 ;" ififoRead $end
$var reg 1 <" ififoWrite $end
$var reg 1 =" iframeEnd $end
$var reg 16 >" ipixelOutput [15:0] $end
$var reg 1 ?" ireadSignal $end
$var reg 1 @" r1_Pulse $end
$var reg 1 A" r2_Pulse $end
$var reg 1 B" r3_Pulse $end
$var reg 10 C" raddr [9:0] $end
$var reg 10 D" waddr [9:0] $end
$scope module b1 $end
$var wire 16 E" din [15:0] $end
$var wire 10 F" raddr [9:0] $end
$var wire 1 Q rclk $end
$var wire 1 ;" read_en $end
$var wire 10 G" waddr [9:0] $end
$var wire 1 N wclk $end
$var wire 1 H" write_en $end
$var parameter 32 I" addr_width $end
$var parameter 32 J" data_width $end
$var reg 16 K" dout [15:0] $end
$upscope $end
$scope module b2 $end
$var wire 16 L" din [15:0] $end
$var wire 10 M" raddr [9:0] $end
$var wire 1 Q rclk $end
$var wire 1 ;" read_en $end
$var wire 10 N" waddr [9:0] $end
$var wire 1 N wclk $end
$var wire 1 O" write_en $end
$var parameter 32 P" addr_width $end
$var parameter 32 Q" data_width $end
$var reg 16 R" dout [15:0] $end
$upscope $end
$upscope $end
$upscope $end
$enddefinitions $end
$comment Show the parameter values. $end
$dumpall
b10000 Q"
b1010 P"
b10000 J"
b1010 I"
b1000 B
$end
#0
$dumpvars
bx R"
xO"
bx N"
bx M"
bx L"
bx K"
xH"
bx G"
bx F"
bx E"
bx D"
bx C"
xB"
xA"
x@"
x?"
bx >"
x="
x<"
x;"
x:"
bx 9"
x8"
x7"
x6"
bx 5"
x4"
x3"
bx 2"
bx 1"
bx 0"
bx /"
bx ."
bx -"
b110100 ,"
bx +"
x*"
x)"
x("
bx '"
x&"
x%"
x$"
x#"
x""
bx !"
bx ~
bx }
bx |
x{
xz
xy
bx x
xw
xv
xu
xt
xs
xr
xq
xp
xo
xn
xm
xl
xk
xj
xi
xh
xg
xf
xe
xd
xc
xb
xa
x`
x_
x^
x]
x\
x[
bx Z
xY
xX
xW
1V
bx U
bx T
xS
xR
xQ
bx P
xO
xN
xM
xL
xK
xJ
xI
xH
xG
xF
xE
xD
xC
xA
x@
bx ?
x>
x=
x<
bx ;
x:
x9
bx 8
x7
x6
x5
x4
x3
x2
x1
x0
bx /
x.
x-
x,
z+
b110100 *
x)
z(
0'
1&
z%
1$
1#
x"
x!
$end
#10
02
b0 8
b0 0"
b0 ;
b0 1"
b0 ?
b0 2"
0.
0;"
b0 C"
b0 F"
b0 M"
b0 >"
1Q
0O
1M
1D
0S
#20
0Q
#24
b0 T
b0 +"
b0 E"
b0 L"
#25
1R
#30
1)
1Q
b11111111 P
b11111111 U
1:
1J
0A
0C
1L
1K
1I
1H
1F
1E
1G
#40
0Q
#49
0N
0R
#50
01
0="
1Q
#52
0<
0"
00
b0 D"
b0 G"
b0 N"
1,
1<"
1>
1:"
19
1?"
b0 /
b0 -"
b0 9"
b0 5"
13"
04"
1@"
14
1q
15
1p
16
1o
17
1n
1b
1e
1h
1k
0W
1[
1^
1$"
0y
1s
1r
b0 |
b11 x
b0 !"
b11 ~
b11 }
b11 Z
1("
1{
b0 '"
1!
1@
0=
03
0#"
1N
#56
0N
#60
1c
1f
1i
1l
0X
1\
1_
1%"
0$"
b11 Z
1A"
0@"
1N
0Q
0G
#64
0N
#68
1B"
0A"
1d
1g
1j
1m
0Y
1]
1`
1&"
0%"
b11 Z
1R
1N
b1010010001010101 T
b1010010001010101 +"
b1010010001010101 E"
b1010010001010101 L"
#70
12
bx 8
bx 0"
bx ;
bx 1"
bx ?
bx 2"
b1 C"
b1 F"
b1 M"
1.
1;"
bx >"
1S
1Q
#72
0N
#76
0O"
0H"
b1 |
0a
0&"
b100 5"
0,
0<"
0B"
1@"
1N
b1111111111111111 T
b1111111111111111 +"
b1111111111111111 E"
b1111111111111111 L"
#80
0N
0Q
#84
1A"
0@"
b100 5"
1N
b1101100100000011 T
b1101100100000011 +"
b1101100100000011 E"
b1101100100000011 L"
#88
0N
#90
02
b10 C"
b10 F"
b10 M"
1Q
1G
#92
1$"
07"
18"
06"
1B"
0A"
1@"
b100 5"
1N
b1010110110011 T
b1010110110011 +"
b1010110110011 E"
b1010110110011 L"
#96
0N
#100
0B"
1A"
0@"
b100 5"
1%"
1N
b11000000111001 T
b11000000111001 +"
b11000000111001 E"
b11000000111001 L"
0Q
#104
0N
#108
b10 |
1a
1&"
1B"
0A"
b100 5"
1N
b1000011100010 T
b1000011100010 +"
b1000011100010 E"
b1000011100010 L"
#110
12
b11 C"
b11 F"
b11 M"
1Q
#112
0N
#116
0B"
1@"
b100 5"
b10 }
1N
b10001010111000 T
b10001010111000 +"
b10001010111000 E"
b10001010111000 L"
#120
0N
0Q
0G
#124
b1 }
0$"
1A"
0@"
b100 5"
1N
b1000100111110 T
b1000100111110 +"
b1000100111110 E"
b1000100111110 L"
#128
0N
#130
02
b100 C"
b100 F"
b100 M"
1Q
#132
1B"
0A"
1@"
b100 5"
b0 }
0%"
1N
b1010110110011 T
b1010110110011 +"
b1010110110011 E"
b1010110110011 L"
#136
0N
#140
b11 |
0""
1)"
1z
0a
0&"
0B"
1A"
0@"
b100 5"
1N
b1100111011110 T
b1100111011110 +"
b1100111011110 E"
b1100111011110 L"
0Q
#144
0N
#148
0*"
1B"
0A"
b100 5"
0-
b11 }
1N
b100001101010000 T
b100001101010000 +"
b100001101010000 E"
b100001101010000 L"
#150
12
b101 C"
b101 F"
b101 M"
1Q
1G
#152
0N
#156
1$"
0B"
1@"
b11 5"
1N
b1110000100 T
b1110000100 +"
b1110000100 E"
b1110000100 L"
#160
0N
0Q
#164
1A"
0@"
b10 5"
1%"
1N
b110100100 T
b110100100 +"
b110100100 E"
b110100100 L"
#168
0N
#170
02
b110 C"
b110 F"
b110 M"
1Q
#172
b100 |
1a
1&"
1B"
0A"
1@"
b1 5"
1N
b1000101 T
b1000101 +"
b1000101 E"
b1000101 L"
#176
0N
#180
1H"
1,
1<"
0>
0:"
09
0?"
0B"
1A"
0@"
b0 5"
b10 }
1W
0$"
1N
b1111110111101000 T
b1111110111101000 +"
b1111110111101000 E"
b1111110111101000 L"
0Q
b10000100000 P
b10000100000 U
0:
0J
1A
1C
0G
#184
0N
#188
b1 }
1X
0%"
03"
b1 D"
b1 G"
b1 N"
b10 /
b10 -"
b10 9"
1B"
0A"
1N
#190
12
b111 C"
b111 F"
b111 M"
1Q
#192
0N
#196
b10 D"
b10 G"
b10 N"
b100 /
b100 -"
b100 9"
0B"
1@"
b101 |
b0 }
1y
0a
1Y
0&"
1N
#200
0N
0Q
#204
b0 |
b10 x
0-
b11 }
b11 D"
b11 G"
b11 N"
b110 /
b110 -"
b110 9"
1A"
0@"
1N
#208
0N
#210
02
b1000 C"
b1000 F"
b1000 M"
1Q
0A
0C
1G
#212
1*"
b100 D"
b100 G"
b100 N"
b1000 /
b1000 -"
b1000 9"
1B"
0A"
1@"
b1 x
1-
0W
1$"
1N
#216
0N
#220
0H"
b0 x
0X
1%"
b100 5"
0,
0<"
1>
1:"
19
1?"
0B"
1A"
0@"
1N
0Q
#224
0N
#228
1B"
0A"
b100 5"
b10000100000 !"
0!
0@
0y
1a
0Y
1&"
1N
#230
12
b1001 C"
b1001 F"
b1001 M"
1Q
#232
0N
#236
1!
1@
b11 x
b10 }
0B"
1@"
b100 5"
1N
#240
0)
0N
0Q
0E
0G
#244
1A"
0@"
b100 5"
b1 }
0[
0$"
1N
#248
0N
#250
02
b1010 C"
b1010 F"
b1010 M"
1Q
#252
b0 }
0\
0%"
1B"
0A"
1@"
b100 5"
1N
#256
0N
#260
1<
0B"
1A"
0@"
b100 5"
b1 |
0z
0r
0a
0]
0&"
1N
0Q
#264
0N
#268
1"
0-
1=
13
b11 }
1B"
0A"
b100 5"
1N
#270
12
b1011 C"
b1011 F"
b1011 M"
1Q
1G
#272
0N
#276
0B"
1@"
b100 5"
06
0o
07
0n
1$"
1N
#280
0N
0Q
#284
1%"
1A"
0@"
b100 5"
1N
#288
0N
#290
02
b1100 C"
b1100 F"
b1100 M"
1Q
#292
1B"
0A"
1@"
b100 5"
b10 |
1a
1&"
1N
#296
0N
#300
b10 }
0$"
0B"
1A"
0@"
b100 5"
1N
0Q
0G
#304
0N
#308
1B"
0A"
b100 5"
b1 }
0%"
1N
#310
12
b1101 C"
b1101 F"
b1101 M"
1Q
#312
0N
#316
b11 |
b0 }
0a
0&"
0B"
1@"
b100 5"
1N
#320
0N
0Q
#324
1A"
0@"
b100 5"
b11 }
1N
#328
0N
#330
02
b1110 C"
b1110 F"
b1110 M"
1Q
1E
1G
#332
1[
1$"
1B"
0A"
1@"
b100 5"
1N
#336
0N
#340
0B"
1A"
0@"
b100 5"
1\
1%"
1N
0Q
#344
0N
#348
0"
0<
b100 |
1r
1a
1]
1&"
1B"
0A"
b100 5"
1N
#350
12
b1111 C"
b1111 F"
b1111 M"
1Q
#352
0N
#356
1)
0*"
0B"
1@"
b100 5"
16
1o
17
1n
03
0=
b10 }
1N
#360
0N
0Q
0G
#364
b1 }
0$"
1A"
0@"
b11 5"
1N
#368
0N
#370
02
b10000 C"
b10000 F"
b10000 M"
1Q
#372
1B"
0A"
1@"
b10 5"
b0 }
0%"
1N
#376
0N
#380
b101 |
0a
0&"
0B"
1A"
0@"
b1 5"
1N
0Q
#384
0N
#388
1H"
1,
1<"
0>
0:"
09
0?"
1B"
0A"
b0 5"
b11 }
1N
#390
12
b10001 C"
b10001 F"
b10001 M"
1Q
1G
#392
0N
#396
1$"
b101 D"
b101 G"
b101 N"
b1010 /
b1010 -"
b1010 9"
0B"
1@"
1N
#400
0N
0Q
#404
b110 D"
b110 G"
b110 N"
b1100 /
b1100 -"
b1100 9"
1A"
0@"
1%"
1N
#408
0N
#410
02
b10010 C"
b10010 F"
b10010 M"
1Q
#412
b110 |
1a
1&"
b111 D"
b111 G"
b111 N"
b1110 /
b1110 -"
b1110 9"
1B"
0A"
1@"
1N
#416
0N
#420
b1000 D"
b1000 G"
b1000 N"
b10000 /
b10000 -"
b10000 9"
0B"
1A"
0@"
b10 }
0$"
1N
0Q
0G
#424
0N
#428
b1 }
0%"
b1001 D"
b1001 G"
b1001 N"
b10010 /
b10010 -"
b10010 9"
1B"
0A"
1N
#430
12
b10011 C"
b10011 F"
b10011 M"
0D
1Q
#432
0N
#436
b1010 D"
b1010 G"
b1010 N"
b10100 /
b10100 -"
b10100 9"
0B"
1@"
b0 }
0a
0&"
1N
#440
0N
0Q
#444
b11 }
b1011 D"
b1011 G"
b1011 N"
b10110 /
b10110 -"
b10110 9"
1A"
0@"
1N
#448
0N
#450
02
b10100 C"
b10100 F"
b10100 M"
1Q
1G
#452
b1100 D"
b1100 G"
b1100 N"
b11000 /
b11000 -"
b11000 9"
1B"
0A"
1@"
1$"
1N
#456
0N
#460
1%"
b1101 D"
b1101 G"
b1101 N"
b11010 /
b11010 -"
b11010 9"
0B"
1A"
0@"
1N
1D
1O
0Q
#464
0N
#468
0H"
1O"
b1110 D"
b1110 G"
b1110 N"
b11100 /
b11100 -"
b11100 9"
16"
1B"
0A"
1a
1&"
1N
#470
12
b10101 C"
b10101 F"
b10101 M"
1Q
#472
0N
#476
b10 }
b1111 D"
b1111 G"
b1111 N"
b11110 /
b11110 -"
b11110 9"
0B"
1@"
1N
#480
0N
0Q
0G
#484
b10000 D"
b10000 G"
b10000 N"
b100000 /
b100000 -"
b100000 9"
1A"
0@"
b1 }
0$"
1N
#488
0N
#490
02
b10110 C"
b10110 F"
b10110 M"
1Q
#492
b0 }
0%"
b10001 D"
b10001 G"
b10001 N"
b100010 /
b100010 -"
b100010 9"
1B"
0A"
1@"
1N
#496
0N
#500
b10010 D"
b10010 G"
b10010 N"
b100100 /
b100100 -"
b100100 9"
0B"
1A"
0@"
0a
0&"
1N
0Q
#504
0N
#508
b11 }
b10011 D"
b10011 G"
b10011 N"
b100110 /
b100110 -"
b100110 9"
1B"
0A"
1N
#510
12
b10111 C"
b10111 F"
b10111 M"
1Q
1G
#512
0N
#516
b10100 D"
b10100 G"
b10100 N"
b101000 /
b101000 -"
b101000 9"
0B"
1@"
1$"
1N
#520
0N
0Q
#524
1%"
b10101 D"
b10101 G"
b10101 N"
b101010 /
b101010 -"
b101010 9"
1A"
0@"
1N
#528
0N
#530
02
b11000 C"
b11000 F"
b11000 M"
1Q
#532
b10110 D"
b10110 G"
b10110 N"
b101100 /
b101100 -"
b101100 9"
1B"
0A"
1@"
1a
1&"
1N
#536
0N
#540
b10 }
0$"
b10111 D"
b10111 G"
b10111 N"
b101110 /
b101110 -"
b101110 9"
0B"
1A"
0@"
1N
0Q
0G
#544
0N
#548
b11000 D"
b11000 G"
b11000 N"
b110000 /
b110000 -"
b110000 9"
1B"
0A"
b1 }
0%"
1N
#550
12
b11001 C"
b11001 F"
b11001 M"
1Q
#552
0N
#556
b0 }
0a
0&"
b11001 D"
b11001 G"
b11001 N"
b110010 /
b110010 -"
b110010 9"
0B"
1@"
1N
#560
0N
0Q
#564
b11010 D"
b11010 G"
b11010 N"
b110100 /
b110100 -"
b110100 9"
1A"
0@"
b11 }
1N
#568
0N
#570
02
b1111110111101000 ."
b1111110111101000 R"
b11010 C"
b11010 F"
b11010 M"
1Q
1G
#572
1$"
b11011 D"
b11011 G"
b11011 N"
b110110 /
b110110 -"
b110110 9"
1B"
0A"
1@"
1N
#576
0N
#580
b11100 D"
b11100 G"
b11100 N"
b111000 /
b111000 -"
b111000 9"
0B"
1A"
0@"
1%"
1N
0Q
#584
0N
#588
1a
1&"
b11101 D"
b11101 G"
b11101 N"
b111010 /
b111010 -"
b111010 9"
1B"
0A"
1N
#590
12
b11011 C"
b11011 F"
b11011 M"
1Q
#592
0N
#596
b11110 D"
b11110 G"
b11110 N"
b111100 /
b111100 -"
b111100 9"
0B"
1@"
b10 }
1N
#600
0N
0Q
0G
#604
b1 }
0$"
b11111 D"
b11111 G"
b11111 N"
b111110 /
b111110 -"
b111110 9"
1A"
0@"
1N
#608
0N
#610
02
b11100 C"
b11100 F"
b11100 M"
1Q
#612
b100000 D"
b100000 G"
b100000 N"
b1000000 /
b1000000 -"
b1000000 9"
1B"
0A"
1@"
b0 }
0%"
1N
#616
0N
#620
0a
0&"
b100001 D"
b100001 G"
b100001 N"
b1000010 /
b1000010 -"
b1000010 9"
0B"
1A"
0@"
1N
0Q
#624
0N
#628
b100010 D"
b100010 G"
b100010 N"
b1000100 /
b1000100 -"
b1000100 9"
1B"
0A"
b11 }
1N
#630
12
b11101 C"
b11101 F"
b11101 M"
1Q
1G
#632
0N
#636
1$"
b100011 D"
b100011 G"
b100011 N"
b1000110 /
b1000110 -"
b1000110 9"
0B"
1@"
1N
#640
0N
0Q
#644
b100100 D"
b100100 G"
b100100 N"
b1001000 /
b1001000 -"
b1001000 9"
1A"
0@"
1%"
1N
#648
0N
#650
02
b11110 C"
b11110 F"
b11110 M"
1Q
#652
1a
1&"
b100101 D"
b100101 G"
b100101 N"
b1001010 /
b1001010 -"
b1001010 9"
1B"
0A"
1@"
1N
#656
0N
#660
b100110 D"
b100110 G"
b100110 N"
b1001100 /
b1001100 -"
b1001100 9"
0B"
1A"
0@"
b10 }
0$"
1N
0Q
0G
#664
0N
#668
b1 }
0%"
b100111 D"
b100111 G"
b100111 N"
b1001110 /
b1001110 -"
b1001110 9"
1B"
0A"
1N
#670
12
b11111 C"
b11111 F"
b11111 M"
1Q
#672
0N
#676
b101000 D"
b101000 G"
b101000 N"
b1010000 /
b1010000 -"
b1010000 9"
0B"
1@"
b0 }
0a
0&"
1N
#680
0N
0Q
#684
b11 }
b101001 D"
b101001 G"
b101001 N"
b1010010 /
b1010010 -"
b1010010 9"
1A"
0@"
1N
#688
0N
#690
02
b0 8
b0 0"
b0 ;
b0 1"
b0 ?
b0 2"
0.
0;"
b0 C"
b0 F"
b0 M"
b0 >"
0S
1Q
1G
#692
b1010100 /
b1010100 -"
b1010100 9"
13"
b10 5"
b0 D"
b0 G"
b0 N"
1>
1:"
19
1?"
08"
1B"
0A"
1@"
1$"
1N
#696
0N
#700
1%"
0B"
1A"
0@"
b10 5"
1N
0Q
#704
0N
#708
1B"
0A"
b10 5"
1a
1&"
1N
#710
0D
1Q
#712
0N
#716
b10 }
0B"
1@"
b10 5"
1N
#720
0N
0Q
1A
1C
0G
#724
1A"
0@"
b10 5"
b1 }
1W
0$"
1N
#728
0N
#730
1D
1Q
#732
b0 }
1X
0%"
1B"
0A"
1@"
b10 5"
1N
#736
0N
#740
0B"
1A"
0@"
b10 5"
1y
0a
1Y
0&"
1N
0O
0Q
#744
0N
#748
1H"
0O"
b0 |
b10 x
0-
b11 }
06"
1B"
0A"
b10 5"
1N
#750
12
b11111 8
b11111 0"
b101111 ;
b101111 1"
b1000 ?
b1000 2"
b1 C"
b1 F"
b1 M"
1.
1;"
b1111110111101000 >"
0)
1S
1Q
0F
0A
0C
1G
#752
0N
#756
0H"
1*"
0,
0<"
0B"
1@"
b1 5"
b1 x
1-
0W
0^
1$"
1N
#760
0N
0Q
#764
b0 x
0X
0_
1%"
1A"
0@"
b100 5"
1N
#768
0N
#770
02
b1111110111101000 /"
b1111110111101000 K"
bx ."
bx R"
b10 C"
b10 F"
b10 M"
1Q
#772
18"
1B"
0A"
1@"
b100 5"
0!
0@
0y
0s
1a
0Y
0`
1&"
1N
#776
0N
#780
0-
1=
13
1!
1@
b11 x
b10 }
0$"
0B"
1A"
0@"
b100 5"
1N
0Q
0G
#784
0N
#788
1B"
0A"
b100 5"
06
0o
07
0n
b1 }
0%"
1N
#790
12
bx 8
bx 0"
bx ;
bx 1"
bx ?
bx 2"
b11 C"
b11 F"
b11 M"
bx >"
1Q
#792
0N
#796
b1 |
b0 }
0a
0&"
0B"
1@"
b100 5"
1N
#800
0N
0Q
#804
1A"
0@"
b100 5"
b11 }
1N
#808
0N
#810
02
b100 C"
b100 F"
b100 M"
1Q
1G
#812
1$"
1B"
0A"
1@"
b100 5"
1N
#816
0N
#820
0B"
1A"
0@"
b100 5"
1%"
1N
0Q
#824
0N
#828
b10 |
1a
1&"
1B"
0A"
b100 5"
1N
#830
12
b101 C"
b101 F"
b101 M"
1Q
#832
0N
#836
0B"
1@"
b100 5"
b10 }
1N
#840
0N
0Q
0G
#844
b1 }
0$"
1A"
0@"
b100 5"
1N
#848
0N
#850
02
b110 C"
b110 F"
b110 M"
1Q
#852
1B"
0A"
1@"
b100 5"
b0 }
0%"
1N
#856
0N
#860
b11 |
0)"
0a
0&"
0B"
1A"
0@"
b100 5"
1N
0Q
#864
0N
#868
1B"
0A"
b100 5"
b11 }
1N
#870
12
b111 C"
b111 F"
b111 M"
1Q
1F
1G
#872
0N
#876
1^
1$"
0B"
1@"
b100 5"
1N
#880
0N
0Q
#884
1A"
0@"
b100 5"
1_
1%"
1N
#888
0N
#890
02
b1000 C"
b1000 F"
b1000 M"
1Q
#892
b100 |
1s
1a
1`
1&"
1B"
0A"
1@"
b100 5"
1N
#896
0N
#900
1)
0*"
0B"
1A"
0@"
b100 5"
16
1o
17
1n
03
0=
b10 }
0$"
1N
0Q
0G
#904
0N
#908
b1 }
0%"
1B"
0A"
b11 5"
1N
#910
12
b1001 C"
b1001 F"
b1001 M"
1Q
#912
0N
#916
0B"
1@"
b10 5"
b101 |
b0 }
0a
0&"
1N
#920
0N
0Q
#924
b11 }
1A"
0@"
b1 5"
1N
#928
0N
#930
02
b1010 C"
b1010 F"
b1010 M"
1Q
1G
#932
1H"
1,
1<"
0>
0:"
09
0?"
1B"
0A"
1@"
b0 5"
1$"
1N
#936
0N
#940
1%"
03"
b1 D"
b1 G"
b1 N"
b1010110 /
b1010110 -"
b1010110 9"
0B"
1A"
0@"
1N
0Q
#944
0N
#948
b10 D"
b10 G"
b10 N"
b1011000 /
b1011000 -"
b1011000 9"
1B"
0A"
b110 |
1a
1&"
1N
#950
12
b1011 C"
b1011 F"
b1011 M"
1Q
#952
0N
#956
b10 }
b11 D"
b11 G"
b11 N"
b1011010 /
b1011010 -"
b1011010 9"
0B"
1@"
1N
#960
0N
0Q
0G
#964
b100 D"
b100 G"
b100 N"
b1011100 /
b1011100 -"
b1011100 9"
1A"
0@"
b1 }
0$"
1N
#968
0N
#970
02
b1100 C"
b1100 F"
b1100 M"
1Q
#972
b0 }
0%"
b101 D"
b101 G"
b101 N"
b1011110 /
b1011110 -"
b1011110 9"
1B"
0A"
1@"
1N
#976
0N
#980
b110 D"
b110 G"
b110 N"
b1100000 /
b1100000 -"
b1100000 9"
0B"
1A"
0@"
1)"
0a
0&"
1N
0Q
#984
0N
#988
b11 }
b111 D"
b111 G"
b111 N"
b1100010 /
b1100010 -"
b1100010 9"
1B"
0A"
1N
#990
12
b1101 C"
b1101 F"
b1101 M"
1Q
1G
#992
0N
#996
b1000 D"
b1000 G"
b1000 N"
b1100100 /
b1100100 -"
b1100100 9"
0B"
1@"
1$"
1N
#1000
0N
0Q
#1004
1%"
b1001 D"
b1001 G"
b1001 N"
b1100110 /
b1100110 -"
b1100110 9"
1A"
0@"
1N
#1008
0N
#1010
02
b1110 C"
b1110 F"
b1110 M"
1Q
#1012
b1010 D"
b1010 G"
b1010 N"
b1101000 /
b1101000 -"
b1101000 9"
1B"
0A"
1@"
1a
1&"
1N
#1016
0N
#1020
b10 }
0$"
b1011 D"
b1011 G"
b1011 N"
b1101010 /
b1101010 -"
b1101010 9"
0B"
1A"
0@"
1N
0Q
0G
#1024
0N
#1028
b1100 D"
b1100 G"
b1100 N"
b1101100 /
b1101100 -"
b1101100 9"
1B"
0A"
b1 }
0%"
1N
#1030
12
b1111 C"
b1111 F"
b1111 M"
b1111110111101000 ."
b1111110111101000 R"
bx /"
bx K"
1Q
#1032
0N
#1036
b0 }
0a
0&"
b1101 D"
b1101 G"
b1101 N"
b1101110 /
b1101110 -"
b1101110 9"
0B"
1@"
1N
#1040
0N
0Q
#1044
b1110 D"
b1110 G"
b1110 N"
b1110000 /
b1110000 -"
b1110000 9"
1A"
0@"
b11 }
1N
#1048
0N
#1050
02
b11111 8
b11111 0"
b101111 ;
b101111 1"
b1000 ?
b1000 2"
b10000 C"
b10000 F"
b10000 M"
b1111110111101000 >"
1Q
1G
#1052
1$"
b1111 D"
b1111 G"
b1111 N"
b1110010 /
b1110010 -"
b1110010 9"
1B"
0A"
1@"
1N
#1056
0N
#1060
b10000 D"
b10000 G"
b10000 N"
b1110100 /
b1110100 -"
b1110100 9"
0B"
1A"
0@"
1%"
1N
0Q
#1064
0N
#1068
1a
1&"
b10001 D"
b10001 G"
b10001 N"
b1110110 /
b1110110 -"
b1110110 9"
1B"
0A"
1N
#1070
12
b10001 C"
b10001 F"
b10001 M"
b1111110111101000 /"
b1111110111101000 K"
1Q
#1072
0N
#1076
b10010 D"
b10010 G"
b10010 N"
b1111000 /
b1111000 -"
b1111000 9"
0B"
1@"
b10 }
1N
#1080
0N
0Q
0G
#1084
b1 }
0$"
b10011 D"
b10011 G"
b10011 N"
b1111010 /
b1111010 -"
b1111010 9"
1A"
0@"
1N
#1088
0N
#1090
02
b10010 C"
b10010 F"
b10010 M"
1Q
#1092
b10100 D"
b10100 G"
b10100 N"
b1111100 /
b1111100 -"
b1111100 9"
1B"
0A"
1@"
b0 }
0%"
1N
#1096
0N
#1100
0a
0&"
b10101 D"
b10101 G"
b10101 N"
b1111110 /
b1111110 -"
b1111110 9"
0B"
1A"
0@"
1N
0Q
#1104
0N
